\relax 
\providecommand\hyper@newdestlabel[2]{}
\providecommand\zref@newlabel[2]{}
\providecommand\HyperFirstAtBeginDocument{\AtBeginDocument}
\HyperFirstAtBeginDocument{\ifx\hyper@anchor\@undefined
\global\let\oldcontentsline\contentsline
\gdef\contentsline#1#2#3#4{\oldcontentsline{#1}{#2}{#3}}
\global\let\oldnewlabel\newlabel
\gdef\newlabel#1#2{\newlabelxx{#1}#2}
\gdef\newlabelxx#1#2#3#4#5#6{\oldnewlabel{#1}{{#2}{#3}}}
\AtEndDocument{\ifx\hyper@anchor\@undefined
\let\contentsline\oldcontentsline
\let\newlabel\oldnewlabel
\fi}
\fi}
\global\let\hyper@last\relax 
\gdef\HyperFirstAtBeginDocument#1{#1}
\providecommand\HyField@AuxAddToFields[1]{}
\providecommand\HyField@AuxAddToCoFields[2]{}
\providecommand\pbs@newkey[2]{}
\providecommand\pbs@seq@push@cx[2]{}
\providecommand\pbs@at@end@dvi@check{}
\pbs@at@end@dvi@check
\providecommand\@anim@newkey[2]{}
\bbl@beforestart
\catcode `"\active 
\pbs@newkey{pbs@last@page}{1}
\babel@aux{ngerman}{}
\@writefile{nav}{\headcommand {\slideentry {0}{0}{1}{1/1}{}{0}}}
\@writefile{nav}{\headcommand {\beamer@framepages {1}{1}}}
\pbs@newkey{pbs@last@page}{2}
\pgfsyspdfmark {pgfid1}{1864679}{15690014}
\pbs@newkey{pbs@last@page}{3}
\pgfsyspdfmark {pgfid2}{1864679}{15690014}
\pbs@newkey{pbs@last@page}{4}
\pgfsyspdfmark {pgfid3}{1864679}{15690014}
\pbs@newkey{pbs@last@page}{5}
\pgfsyspdfmark {pgfid4}{1864679}{15690014}
\pbs@newkey{pbs@last@page}{6}
\pgfsyspdfmark {pgfid5}{1864679}{15690014}
\pbs@newkey{pbs@last@page}{7}
\pgfsyspdfmark {pgfid6}{1864679}{15690014}
\@writefile{nav}{\headcommand {\slideentry {0}{0}{2}{2/7}{}{0}}}
\@writefile{nav}{\headcommand {\beamer@framepages {2}{7}}}
\pbs@newkey{pbs@last@page}{8}
\pgfsyspdfmark {pgfid7}{1864679}{15690014}
\@writefile{nav}{\headcommand {\slideentry {0}{0}{3}{8/8}{}{0}}}
\@writefile{nav}{\headcommand {\beamer@framepages {8}{8}}}
\pbs@newkey{pbs@last@page}{9}
\pgfsyspdfmark {pgfid8}{1864679}{15690014}
\pbs@newkey{pbs@last@page}{10}
\pgfsyspdfmark {pgfid9}{1864679}{15690014}
\pbs@newkey{pbs@last@page}{11}
\pgfsyspdfmark {pgfid10}{1864679}{15690014}
\pbs@newkey{pbs@last@page}{12}
\pgfsyspdfmark {pgfid11}{1864679}{15690014}
\pbs@newkey{pbs@last@page}{13}
\pgfsyspdfmark {pgfid12}{1864679}{15690014}
\@writefile{nav}{\headcommand {\slideentry {0}{0}{4}{9/13}{}{0}}}
\@writefile{nav}{\headcommand {\beamer@framepages {9}{13}}}
\pbs@newkey{pbs@last@page}{14}
\pgfsyspdfmark {pgfid13}{1864679}{15690014}
\@writefile{nav}{\headcommand {\slideentry {0}{0}{5}{14/14}{}{0}}}
\@writefile{nav}{\headcommand {\beamer@framepages {14}{14}}}
