%!PS-Adobe-2.0 EPSF-2.0
%%BoundingBox: 20 20 560 229
%%Title: C:\Users\Pasca\Documents\masterarbeit\grafics\zeichnungen.eps 
%%Creator: AutoCAD PSOUT
%%For: Pasca
%%Pages: 1
%%DocumentFonts: (atend)
%%DocumentNeededFonts: (atend)
%%CreationDate: 2019-11-14
%%EndComments
save
20 20 translate
0.24 dup scale
0 setlinewidth
/ACADLayer  { pop } def
/ACADColor { setrgbcolor pop } def
/ACADLtype { pop
userdict /Linedict known not { /Linedict 100 dict def } if
1 index cvn Linedict exch known not {
mark 1 index { dup 0 eq { pop 1 72.0 div } if abs } forall
counttomark 2 add -1 roll astore exch pop
1 index cvn exch Linedict begin def end }
{ pop } ifelse 
Linedict begin cvx exec 0 setdash end } bind def
/bd{bind def}bind def /m{moveto}bd /l{lineto}bd /s{stroke}bd
/a{arc}bd /an{arcn}bd /gs{gsave}bd /gr{grestore}bd
/cp{closepath}bd /tr{translate}bd /sc{scale}bd /co{concat}bd
/ff{findfont}bd /sf{setfont}bd /sh{show}bd /np{newpath}bd
/sw{setlinewidth}bd /sj{setlinejoin}bd /sm{setmiterlimit}bd
/cl{clip}bd /fi{fill}bd
%%EndProlog
%%Page: 1 1
gs np -20 -20 m -20 889 l  2269 889 l 2269 -20 l cp cl np
%  Begin next paperspace subwindow
%  Clip to paperspace viewport bounds
gs np 184 -2 m 184 889 l  1781 889 l 1781 -2 l cp cl np 1 1 0 0 ACADColor
(ZEICHNEN) ACADLayer (_Continuous) [  ] (A) ACADLtype gs 204 18 tr
0.3039 0.3037 sc -9859.4927 235.0591 tr
[ 1 0 0 1 11563.50781373 2453.11611728 ] co 0 sw 0 sj 10 sm np 0 0 m
359.8102 0 l 359.8102 -199.1804 l 0 -199.1804 l cp s gr 721 804 m 831 804 l
s 721 819 m 831 819 l s 756 827 m 758 826 l s 762 823 m 762 830 l
s 761 828 m 764 828 l s 766 823 m 766 828 l 768 828 l 768 827 l
s 770 828 m 770 824 l s 772 823 m 774 823 l 774 828 l s 778 823 m 777 823 l
s 776 824 m 776 826 l s 777 828 m 778 828 l s 781 823 m 781 830 l
s 780 828 m 783 828 l s 785 828 m 785 824 l s 786 823 m 788 823 l 788 828 l
s 790 823 m 790 828 l 793 828 l 793 827 l s 798 823 m 796 823 l
s 795 824 m 795 826 l s 798 826 m 798 825 l 795 825 l s gs 204 18 tr
0.3039 0.3037 sc -9859.4927 235.0591 tr
[ 1 0 0 1 11007.28084387 2453.11611728 ] co 0 sw 0 sj 10 sm np 0 0 m
359.8102 0 l 359.8102 -199.1804 l 0 -199.1804 l cp s gr 552 804 m 662 804 l
s 552 819 m 662 819 l s 597 823 m 597 830 l 599 826 l 602 830 l 602 823 l
602 823 l s 607 823 m 605 823 l s 604 824 m 604 826 l s 607 826 m 607 825 l
604 825 l s 610 826 m 612 825 l s 614 823 m 614 830 l s 614 828 m 616 828 l
s 618 826 m 618 823 l s gs 204 18 tr 0.3039 0.3037 sc -9859.4927 235.0591 tr
[ 1 0 0 1 11007.28084387 2179.43568457 ] co 0 sw 0 sj 10 sm np 0 0 m
359.8102 0 l 359.8102 -199.1804 l 0 -199.1804 l cp s gr 552 720 m 662 720 l
s 552 736 m 662 736 l s 599 747 m 601 740 l 603 747 l s 609 743 m 609 742 l
s 605 742 m 605 743 l s 611 740 m 611 745 l s 611 746 m 611 747 l
s 616 747 m 616 740 l 614 740 l s 613 741 m 613 743 l s 614 745 m 616 745 l
s 721 794 m 662 794 l 670 802 l s 662 794 m 670 785 l s 776 710 m 662 710 l
670 719 l s 662 710 m 670 702 l s 776 773 m 776 526 l s 7 0 0 0 ACADColor gs
204 18 tr 0.3039 0.3037 sc -9859.4927 235.0591 tr
[ 1 0 0 1 13098.00142669 1820.36874705 ] co 0 sw 0 sj 10 sm np 0 0 m
359.8102 0 l 359.8102 -199.1804 l 0 -199.1804 l cp s gr 1188 611 m 1297 611 l
s 1188 627 m 1297 627 l s 1200 634 m 1200 637 l s 1204 637 m 1204 634 l
s 1206 630 m 1206 636 l 1208 636 l s 1209 635 m 1209 633 l
s 1208 632 m 1206 632 l s 1212 632 m 1212 639 l s 1211 636 m 1214 636 l
s 1216 632 m 1216 636 l s 1216 638 m 1216 639 l s 1218 632 m 1218 636 l
1221 636 l s 1223 635 m 1223 632 l s 1220 632 m 1220 636 l
s 1225 632 m 1225 636 l s 1225 638 m 1225 639 l s 1227 636 m 1230 636 l
1227 632 l 1230 632 l 1230 632 l s 1233 636 m 1234 636 l
s 1236 635 m 1236 632 l 1234 632 l s 1234 634 m 1236 634 l
s 1239 632 m 1239 639 l s 1238 636 m 1240 636 l s 1242 632 m 1242 636 l
s 1242 638 m 1242 639 l s 1248 635 m 1248 633 l s 1245 633 m 1245 635 l
s 1250 632 m 1250 636 l 1252 636 l s 1253 635 m 1253 632 l
s 1255 632 m 1255 639 l 1258 635 l 1260 639 l 1260 632 l 1260 632 l
s 1265 632 m 1263 632 l s 1262 633 m 1262 635 l s 1265 635 m 1265 634 l
1262 634 l s 1268 632 m 1268 639 l s 1267 636 m 1270 636 l
s 1272 632 m 1272 639 l s 1272 636 m 1274 636 l s 1275 635 m 1275 632 l
s 1280 635 m 1280 633 l s 1277 633 m 1277 635 l s 1286 639 m 1286 632 l
1284 632 l s 1283 633 m 1283 635 l s 1284 636 m 1286 636 l s 1 1 0 0 ACADColor
gs 204 18 tr 0.3039 0.3037 sc -9859.4927 235.0591 tr
[ 1 0 0 1 10778.95633172 1846.52627797 ] co 0 sw 0 sj 10 sm np 0 0 m
359.8102 0 l 359.8102 -199.1804 l 0 -199.1804 l cp s gr 483 619 m 592 619 l
s 483 635 m 592 635 l s 502 640 m 502 647 l 504 647 l s 504 643 m 502 643 l
s 504 643 m 506 640 l s 511 640 m 509 640 l s 508 641 m 508 643 l
s 511 643 m 511 642 l 508 642 l s 516 640 m 515 640 l s 513 641 m 513 643 l
s 515 645 m 516 645 l s 519 640 m 519 647 l s 518 645 m 520 645 l
s 523 645 m 524 645 l s 525 643 m 525 640 l 524 640 l s 524 642 m 525 642 l
s 528 640 m 528 645 l 529 645 l s 531 643 m 531 640 l s 533 638 m 535 638 l
s 536 639 m 536 645 l 534 645 l s 533 643 m 533 641 l s 534 640 m 536 640 l
s 538 645 m 538 641 l s 540 640 m 541 640 l 541 645 l s 544 641 m 544 647 l
s 547 645 m 548 645 l s 550 643 m 550 640 l 548 640 l s 548 642 m 550 642 l
s 552 640 m 552 645 l 554 645 l 554 644 l s 557 647 m 559 640 l 561 647 l
s 566 643 m 566 642 l s 563 642 m 563 643 l s 569 640 m 569 645 l
s 569 646 m 569 647 l s 574 647 m 574 640 l 572 640 l s 571 641 m 571 643 l
s 572 645 m 574 645 l s gs 204 18 tr 0.3039 0.3037 sc -9859.4927 235.0591 tr
[ 1 0 0 1 11595.41556446 1846.52627797 ] co 0 sw 0 sj 10 sm np 0 0 m
-359.8102 0 l -359.8102 -199.1804 l 0 -199.1804 l cp s gr 731 619 m 622 619 l
s 731 635 m 622 635 l s 653 639 m 652 639 l s 650 641 m 650 644 l
s 652 646 m 653 646 l s 655 639 m 655 643 l s 655 645 m 655 646 l
s 658 639 m 658 643 l 660 643 l 660 643 l s 664 639 m 663 639 l
s 662 640 m 662 642 l s 663 643 m 664 643 l s 667 643 m 667 640 l
s 668 639 m 670 639 l 670 643 l s 672 640 m 672 646 l s 675 643 m 677 643 l
s 678 642 m 678 639 l 676 639 l s 676 641 m 678 641 l s 680 639 m 680 643 l
683 643 l 683 643 l s 685 646 m 687 639 l 689 646 l s 695 642 m 695 640 l
s 692 640 m 692 642 l s 697 639 m 697 643 l s 697 645 m 697 646 l
s 702 646 m 702 639 l 701 639 l s 699 640 m 699 642 l s 701 643 m 702 643 l
s 538 650 m 538 662 l s 676 650 m 676 662 l s 538 662 m 676 662 l
s 607 662 m 607 682 l s 607 690 m 598 682 l s 607 690 m 616 682 l
s 598 682 m 616 682 l s gs 204 18 tr 0.3039 0.3037 sc -9859.4927 235.0591 tr
[ 1 0 0 1 11007.28084387 1572.56278256 ] co 0 sw 0 sj 10 sm np 0 0 m
359.8102 0 l 359.8102 -199.1804 l 0 -199.1804 l cp s gr 552 536 m 662 536 l
s 552 552 m 662 552 l s 567 557 m 568 557 l s 568 560 m 567 560 l
s 568 563 m 567 563 l 567 557 l s 576 560 m 576 558 l s 573 558 m 573 560 l
s 578 561 m 578 558 l s 579 557 m 581 557 l 581 561 l s 583 557 m 583 561 l
585 561 l s 586 560 m 586 557 l s 592 563 m 592 557 l 590 557 l
s 589 558 m 589 560 l s 590 561 m 592 561 l s 594 561 m 596 561 l
s 597 560 m 597 557 l 595 557 l s 595 559 m 597 559 l s 599 557 m 599 561 l
602 561 l 602 560 l s 604 554 m 605 554 l 607 561 l s 604 561 m 605 557 l
s 612 557 m 611 557 l s 609 558 m 609 562 l s 611 563 m 612 563 l
s 617 560 m 617 558 l s 614 558 m 614 560 l s 620 557 m 620 561 l 621 561 l
s 623 560 m 623 557 l s 628 563 m 628 557 l 626 557 l s 625 558 m 625 560 l
s 626 561 m 628 561 l s 630 557 m 630 561 l s 630 563 m 630 563 l
s 633 557 m 633 563 l s 633 561 m 635 561 l s 637 557 m 637 561 l
s 637 563 m 637 563 l s 643 560 m 643 558 l s 640 558 m 640 560 l
s 645 557 m 645 561 l 647 561 l s 648 560 m 648 557 l s 776 526 m 662 526 l
670 535 l s 662 526 m 670 518 l s gs 204 18 tr 0.3039 0.3037 sc
-9859.4927 235.0591 tr [ 1 0 0 1 10778.95633172 1239.65337597 ] co 0 sw
0 sj 10 sm np 0 0 m 359.8102 0 l 359.8102 -199.1804 l 0 -199.1804 l cp s gr
483 435 m 592 435 l s 483 451 m 592 451 l s 514 455 m 516 455 l
s 518 457 m 518 459 l s 516 461 m 514 461 l 514 455 l s 521 455 m 521 459 l
s 521 461 m 521 461 l s 523 455 m 523 459 l 525 459 l 525 458 l
s 527 455 m 527 459 l s 527 461 m 527 461 l s 532 455 m 531 455 l
s 530 456 m 530 458 l s 531 459 m 532 459 l s 534 455 m 534 461 l
s 534 459 m 536 459 l s 537 458 m 537 455 l s 540 455 m 540 461 l
s 546 455 m 544 455 l s 543 456 m 543 458 l s 546 458 m 546 457 l 543 457 l
s 549 455 m 549 461 l s 548 459 m 550 459 l s 552 455 m 554 455 l
s 554 458 m 552 458 l s 554 461 m 552 461 l 552 455 l s 562 455 m 560 455 l
s 558 456 m 558 460 l s 560 461 m 562 461 l s gs 204 18 tr 0.3039 0.3037 sc
-9859.4927 235.0591 tr [ 1 0 0 1 11595.41556446 1239.65337597 ] co 0 sw
0 sj 10 sm np 0 0 m -359.8102 0 l -359.8102 -199.1804 l 0 -199.1804 l cp s gr
731 435 m 622 435 l s 731 451 m 622 451 l s 652 455 m 652 461 l 656 455 l
656 461 l 656 461 l s 661 455 m 659 455 l s 658 456 m 658 458 l
s 661 458 m 661 457 l 658 457 l s 663 459 m 663 456 l s 664 455 m 666 455 l
666 459 l s 668 455 m 668 459 l 672 459 l s 673 458 m 673 455 l
s 671 455 m 671 459 l s 676 459 m 677 459 l s 678 458 m 678 455 l 676 455 l
s 676 457 m 678 457 l s 681 455 m 681 459 l 682 459 l s 684 458 m 684 455 l
s 686 455 m 686 459 l 688 459 l s 689 458 m 689 455 l s 691 455 m 693 455 l
s 693 458 m 691 458 l s 693 461 m 691 461 l 691 455 l s 700 455 m 699 455 l
s 697 456 m 697 460 l s 699 461 m 700 461 l s 538 465 m 538 477 l
s 676 465 m 676 477 l s 538 477 m 676 477 l s 607 477 m 607 497 l
s 607 506 m 598 497 l s 607 506 m 616 497 l s 598 497 m 616 497 l s
7 0 0 0 ACADColor gs 204 18 tr 0.3039 0.3037 sc -9859.4927 235.0591 tr
[ 1 0 0 1 12190.36919426 2179.43568457 ] co 0 sw 0 sj 10 sm np 0 0 m
359.8102 0 l 359.8102 -199.1804 l 0 -199.1804 l cp s gr 912 720 m 1021 720 l
s 912 736 m 1021 736 l s 935 741 m 935 748 l s 933 748 m 937 748 l
s 942 744 m 942 742 l s 939 742 m 939 744 l s 945 739 m 945 745 l 946 745 l
s 948 744 m 948 742 l s 946 741 m 945 741 l s 950 743 m 950 746 l
s 954 746 m 954 743 l s 956 739 m 956 745 l 958 745 l s 959 744 m 959 742 l
s 958 741 m 956 741 l s 962 741 m 962 748 l s 961 745 m 964 745 l
s 966 741 m 966 748 l 968 748 l s 968 744 m 966 744 l s 972 741 m 972 745 l
974 745 l 974 745 l s 980 744 m 980 742 l s 977 742 m 977 744 l
s 982 748 m 982 741 l 984 741 l s 985 742 m 985 744 l s 984 745 m 982 745 l
s 987 742 m 987 748 l s 993 741 m 991 741 l s 990 742 m 990 744 l
s 993 744 m 993 743 l 990 743 l s 996 741 m 996 745 l 999 745 l
s 1000 744 m 1000 741 l s 998 741 m 998 745 l s gs 204 18 tr 0.3039 0.3037 sc
-9859.4927 235.0591 tr [ 1 0 0 1 11941.67520743 1581.55593796 ] co 0 sw
0 sj 10 sm np 0 0 m 359.8102 0 l 359.8102 -199.1804 l 0 -199.1804 l cp s gr
836 539 m 946 539 l s 836 555 m 946 555 l s 880 558 m 880 565 l 883 565 l
s 880 562 m 883 562 l s 885 558 m 885 563 l s 885 565 m 885 565 l
s 888 559 m 888 565 l s 891 558 m 891 565 l s 891 563 m 893 563 l
s 898 558 m 896 558 l s 895 560 m 895 561 l s 898 561 m 898 561 l 895 561 l
s 900 558 m 900 563 l 903 563 l 903 562 l s gs 204 18 tr 0.3039 0.3037 sc
-9859.4927 235.0591 tr [ 1 0 0 1 11670.54014475 1239.49211198 ] co 0 sw
0 sj 10 sm np 0 0 m 359.8102 0 l 359.8102 -199.1804 l 0 -199.1804 l cp s gr
754 435 m 863 435 l s 754 451 m 863 451 l s 765 456 m 765 462 l 767 462 l
s 767 459 m 765 459 l s 767 459 m 769 456 l s 774 456 m 772 456 l
s 771 457 m 771 459 l s 774 459 m 774 458 l 771 458 l s 777 453 m 778 453 l
s 779 455 m 779 460 l 778 460 l s 776 459 m 776 457 l s 778 456 m 779 456 l
s 782 460 m 782 457 l s 783 456 m 785 456 l 785 460 l s 787 456 m 787 462 l
s 790 460 m 792 460 l s 793 459 m 793 456 l 791 456 l s 791 458 m 793 458 l
s 795 456 m 795 460 l 798 460 l 798 459 l s 800 456 m 800 460 l
s 800 462 m 800 462 l s 802 460 m 805 460 l 802 456 l 805 456 l 805 456 l
s 808 460 m 809 460 l s 810 459 m 810 456 l 809 456 l s 809 458 m 810 458 l
s 814 456 m 814 462 l s 813 460 m 815 460 l s 817 456 m 817 460 l
s 817 462 m 817 462 l s 823 459 m 823 457 l s 820 457 m 820 459 l
s 825 456 m 825 460 l 827 460 l s 828 459 m 828 456 l s 830 456 m 830 462 l
833 462 l s 830 459 m 833 459 l s 836 456 m 836 460 l s 836 462 m 836 462 l
s 838 456 m 838 462 l s 842 456 m 842 462 l s 841 460 m 843 460 l
s 848 456 m 847 456 l s 845 457 m 845 459 l s 848 459 m 848 458 l 845 458 l
s 851 456 m 851 460 l 853 460 l 853 459 l s gs 204 18 tr 0.3039 0.3037 sc
-9859.4927 235.0591 tr [ 1 0 0 1 13194.86863285 559.01617356 ] co 0 sw
0 sj 10 sm np 0 0 m 359.8102 0 l 359.8102 -199.1804 l 0 -199.1804 l cp s gr
1217 228 m 1327 228 l s 1217 244 m 1327 244 l s 1237 253 m 1239 252 l
s 1243 249 m 1243 256 l s 1242 253 m 1244 253 l s 1247 253 m 1248 253 l
s 1250 252 m 1250 249 l 1248 249 l s 1248 251 m 1250 251 l
s 1252 249 m 1252 253 l 1254 253 l s 1255 252 m 1255 249 l
s 1260 256 m 1260 249 l 1258 249 l s 1257 250 m 1257 252 l
s 1258 253 m 1260 253 l s 1263 253 m 1264 253 l s 1266 252 m 1266 249 l
1264 249 l s 1264 251 m 1266 251 l s 1268 249 m 1268 253 l 1270 253 l
1270 253 l s 1275 256 m 1275 249 l 1274 249 l s 1272 250 m 1272 252 l
s 1274 253 m 1275 253 l s 1278 251 m 1278 254 l s 1281 254 m 1281 251 l
s 1287 249 m 1285 249 l s 1284 251 m 1284 254 l s 1285 256 m 1287 256 l
s 1291 249 m 1291 256 l s 1289 256 m 1293 256 l s 1295 247 m 1296 247 l
1298 253 l s 1295 253 m 1297 249 l s 1300 247 m 1300 253 l 1302 253 l
s 1304 252 m 1304 250 l s 1302 249 m 1300 249 l s 1309 249 m 1307 249 l
s 1306 250 m 1306 252 l s 1309 252 m 1309 251 l 1306 251 l s gs 204 18 tr
0.3039 0.3037 sc -9859.4927 235.0591 tr
[ 1 0 0 1 14011.32786559 559.01617356 ] co 0 sw 0 sj 10 sm np 0 0 m
-359.8102 0 l -359.8102 -199.1804 l 0 -199.1804 l cp s gr 1465 228 m 1356 228 l
s 1465 244 m 1356 244 l s 1393 249 m 1393 256 l s 1391 256 m 1395 256 l
s 1399 249 m 1399 256 l s 1397 256 m 1401 256 l s 1403 251 m 1403 254 l
s 1407 254 m 1407 251 l s 1411 249 m 1411 256 l s 1409 256 m 1413 256 l
s 1416 247 m 1416 247 l 1419 253 l s 1416 253 m 1417 249 l
s 1421 247 m 1421 253 l 1423 253 l s 1424 252 m 1424 250 l
s 1423 249 m 1421 249 l s 1429 249 m 1427 249 l s 1426 250 m 1426 252 l
s 1429 252 m 1429 251 l 1426 251 l s 1272 259 m 1272 271 l 1410 271 l
s 1341 271 m 1341 291 l s 1341 299 m 1332 291 l 1350 291 l s gs 204 18 tr
0.3039 0.3037 sc -9859.4927 235.0591 tr
[ 1 0 0 1 11362.36876688 906.58796413 ] co 0 sw 0 sj 10 sm np 0 0 m
359.8102 0 l 359.8102 -199.1804 l 0 -199.1804 l cp s gr 660 334 m 770 334 l
s 660 350 m 770 350 l s 681 358 m 683 357 l s 689 354 m 687 354 l
s 686 356 m 686 357 l s 689 357 m 689 357 l 686 357 l s 691 354 m 691 359 l
693 359 l s 694 358 m 694 354 l s 697 357 m 699 356 l s 702 354 m 702 359 l
s 702 361 m 702 361 l s 705 354 m 705 361 l s 704 359 m 706 359 l
s 709 354 m 709 359 l s 709 361 m 709 361 l s 711 359 m 712 354 l 714 359 l
s 716 354 m 716 359 l s 716 361 m 716 361 l s 719 354 m 719 361 l
s 718 359 m 721 359 l s 723 352 m 724 352 l 726 359 l s 723 359 m 725 354 l
s 728 354 m 728 361 l 731 361 l s 728 358 m 731 358 l s 734 354 m 734 359 l
s 734 361 m 734 361 l s 736 355 m 736 361 l s 740 354 m 740 361 l
s 739 359 m 741 359 l s 747 354 m 745 354 l s 744 356 m 744 357 l
s 747 357 m 747 357 l 744 357 l s 749 354 m 749 359 l 751 359 l 751 358 l s gs
204 18 tr 0.3039 0.3037 sc -9859.4927 235.0591 tr
[ 1 0 0 1 12337.52551518 906.58796413 ] co 0 sw 0 sj 10 sm np 0 0 m
-359.8102 0 l -359.8102 -199.1804 l 0 -199.1804 l cp s gr 957 334 m 847 334 l
s 957 350 m 847 350 l s 873 354 m 875 354 l s 877 356 m 877 359 l
s 875 361 m 873 361 l 873 354 l s 882 354 m 880 354 l s 879 356 m 879 357 l
s 882 357 m 882 357 l 879 357 l s 884 354 m 884 359 l 886 359 l
s 887 358 m 887 354 l s 890 357 m 892 356 l s 895 354 m 895 359 l
s 895 361 m 895 361 l s 898 354 m 898 361 l s 897 359 m 900 359 l
s 902 352 m 903 352 l 905 359 l s 902 359 m 903 354 l s 907 354 m 907 361 l
910 361 l s 907 358 m 910 358 l s 913 354 m 913 359 l s 913 361 m 913 361 l
s 915 355 m 915 361 l s 919 354 m 919 361 l s 918 359 m 920 359 l
s 925 354 m 924 354 l s 922 356 m 922 357 l s 925 357 m 925 357 l 922 357 l
s 928 354 m 928 359 l 930 359 l 930 358 l s 715 364 m 715 376 l 902 376 l
s 808 376 m 808 396 l s 808 405 m 800 396 l 817 396 l s 1410 259 m 1410 271 l
s 902 364 m 902 376 l s 817 396 m 809 405 l s 715 263 m 715 295 l
s 715 304 m 706 295 l 723 295 l cp s gs 204 18 tr 0.3039 0.3037 sc
-9859.4927 235.0591 tr [ 1 0 0 1 11361.37252321 572.99376806 ] co 0 sw
0 sj 10 sm np 0 0 m 359.8102 0 l 359.8102 -199.1804 l 0 -199.1804 l cp s gr
660 233 m 769 233 l s 660 248 m 769 248 l s 678 255 m 678 258 l
s 682 258 m 682 255 l s 684 254 m 684 260 l s 690 253 m 688 253 l
s 687 254 m 687 256 l s 690 256 m 690 256 l 687 256 l s 693 257 m 696 256 l
s 699 253 m 699 258 l s 699 260 m 699 260 l s 701 251 m 703 251 l
s 704 252 m 704 258 l 702 258 l s 701 256 m 701 255 l s 702 253 m 704 253 l
s 706 253 m 706 258 l 709 258 l s 711 256 m 711 253 l s 709 253 m 709 258 l
s 713 258 m 713 255 l s 714 253 m 716 253 l 716 258 l s 718 253 m 718 258 l
720 258 l s 721 256 m 721 253 l s 727 260 m 727 253 l 725 253 l
s 724 255 m 724 256 l s 725 258 m 727 258 l s 729 253 m 729 260 l 732 260 l
s 729 257 m 732 257 l s 734 253 m 734 258 l s 734 260 m 734 260 l
s 737 254 m 737 260 l s 740 253 m 740 260 l s 740 258 m 742 258 l
s 747 253 m 745 253 l s 744 254 m 744 256 l s 747 256 m 747 256 l 744 256 l
s 750 253 m 750 258 l 752 258 l 752 257 l s 1350 291 m 1341 299 l s gs
204 18 tr 0.3039 0.3037 sc -9859.4927 235.0591 tr
[ 1 0 0 1 11772.18744338 573.4785002 ] co 0 sw 0 sj 10 sm np 0 0 m 359.8102 0 l
359.8102 -199.1804 l 0 -199.1804 l cp s gr 785 233 m 894 233 l
s 785 249 m 894 249 l s 807 252 m 807 259 l s 807 256 m 811 256 l
s 811 259 m 811 252 l s 816 252 m 814 252 l s 813 253 m 813 255 l
s 816 255 m 816 255 l 813 255 l s 819 257 m 820 257 l s 822 256 m 822 252 l
820 252 l s 820 255 m 822 255 l s 824 257 m 825 252 l 827 257 l
s 829 252 m 829 257 l s 829 259 m 829 259 l s 832 255 m 834 254 l
s 837 252 m 837 257 l s 837 259 m 837 259 l s 842 259 m 842 252 l 840 252 l
s 839 254 m 839 256 l s 840 257 m 842 257 l s 847 252 m 846 252 l
s 844 253 m 844 255 l s 847 255 m 847 255 l 844 255 l s 850 252 m 850 259 l
853 259 l s 850 256 m 853 256 l s 855 252 m 855 257 l s 855 259 m 855 259 l
s 857 253 m 857 259 l s 861 252 m 861 259 l s 860 257 m 863 257 l
s 868 252 m 866 252 l s 865 253 m 865 255 l s 868 255 m 868 255 l 865 255 l
s 870 252 m 870 257 l 873 257 l 873 256 l s gs 204 18 tr 0.3039 0.3037 sc
-9859.4927 235.0591 tr [ 1 0 0 1 12543.64953527 573.4785002 ] co 0 sw
0 sj 10 sm np 0 0 m -359.8102 0 l -359.8102 -199.1804 l 0 -199.1804 l cp s gr
1019 233 m 910 233 l s 1019 249 m 910 249 l s 917 252 m 919 252 l
s 919 256 m 917 256 l s 919 259 m 917 259 l 917 252 l s 924 252 m 924 257 l
926 257 l 926 256 l s 928 257 m 928 254 l s 929 252 m 931 252 l 931 257 l
s 933 252 m 933 257 l 935 257 l s 936 256 m 936 252 l s 939 255 m 941 254 l
s 946 252 m 946 259 l s 944 259 m 948 259 l s 953 255 m 953 254 l
s 950 254 m 950 255 l s 955 252 m 955 257 l 958 257 l 958 256 l
s 961 252 m 961 259 l s 960 257 m 962 257 l s 968 255 m 968 254 l
s 965 254 m 965 255 l s 970 252 m 970 257 l 972 257 l 972 256 l
s 978 252 m 976 252 l s 974 253 m 974 255 l s 978 255 m 978 255 l 974 255 l
s 980 253 m 980 259 l s 983 253 m 983 259 l s 986 252 m 986 257 l
s 986 259 m 986 259 l s 988 252 m 988 259 l 991 259 l s 988 256 m 991 256 l
s 993 252 m 993 257 l s 993 259 m 993 259 l s 996 253 m 996 259 l
s 1000 252 m 1000 259 l s 999 257 m 1001 257 l s 1006 252 m 1004 252 l
s 1003 253 m 1003 255 l s 1006 255 m 1006 255 l 1003 255 l
s 1009 252 m 1009 257 l 1011 257 l 1011 256 l s 839 263 m 839 275 l 964 275 l
s 902 275 m 902 295 l s 902 304 m 893 295 l 911 295 l s 964 263 m 964 275 l
s 911 295 m 902 304 l s gs 204 18 tr 0.3039 0.3037 sc -9859.4927 235.0591 tr
[ 1 0 0 1 12619.45099116 1238.1853792 ] co 0 sw 0 sj 10 sm np 0 0 m
359.8102 0 l 359.8102 -199.1804 l 0 -199.1804 l cp s gr 1042 435 m 1152 435 l
s 1042 450 m 1152 450 l s 1078 454 m 1078 461 l 1079 461 l
s 1079 457 m 1078 457 l s 1080 457 m 1081 454 l s 1084 454 m 1084 461 l
s 1084 459 m 1085 459 l s 1087 457 m 1087 454 l s 1092 457 m 1092 456 l
s 1089 456 m 1089 457 l s 1094 454 m 1094 461 l 1097 461 l
s 1094 458 m 1097 458 l s 1100 454 m 1100 459 l s 1100 461 m 1100 461 l
s 1102 455 m 1102 461 l s 1106 454 m 1106 461 l s 1105 459 m 1107 459 l
s 1113 454 m 1111 454 l s 1109 455 m 1109 457 l s 1113 457 m 1113 456 l
1109 456 l s 1115 454 m 1115 459 l 1117 459 l 1117 458 l s gs 204 18 tr
0.3039 0.3037 sc -9859.4927 235.0591 tr
[ 1 0 0 1 12391.42455739 905.07591527 ] co 0 sw 0 sj 10 sm np 0 0 m
359.8102 0 l 359.8102 -199.1804 l 0 -199.1804 l cp s gr 973 333 m 1082 333 l
s 973 349 m 1082 349 l s 1011 357 m 1013 356 l s 1016 353 m 1016 360 l
s 1019 353 m 1019 360 l 1021 356 l 1023 360 l 1023 353 l 1023 353 l
s 1026 353 m 1026 360 l 1027 360 l s 1027 356 m 1026 356 l
s 1032 353 m 1032 360 l 1034 360 l s 1034 356 m 1032 356 l
s 1034 356 m 1035 353 l s 1038 353 m 1038 360 l s 1038 358 m 1039 358 l
s 1041 356 m 1041 353 l s 1046 356 m 1046 355 l s 1043 355 m 1043 356 l s gs
204 18 tr 0.3039 0.3037 sc -9859.4927 235.0591 tr
[ 1 0 0 1 13207.88379013 905.07591527 ] co 0 sw 0 sj 10 sm np 0 0 m
-359.8102 0 l -359.8102 -199.1804 l 0 -199.1804 l cp s gr 1221 333 m 1112 333 l
s 1221 349 m 1112 349 l s 1146 353 m 1146 360 l 1148 360 l
s 1148 356 m 1146 356 l s 1148 356 m 1150 353 l s 1152 353 m 1154 360 l
1157 353 l s 1156 355 m 1153 355 l s 1159 353 m 1159 360 l 1161 356 l
1163 360 l 1163 353 l 1163 353 l s 1166 353 m 1166 360 l 1168 360 l
s 1168 356 m 1166 356 l s 1172 353 m 1172 360 l 1174 360 l
s 1174 356 m 1172 356 l s 1174 356 m 1176 353 l s 1178 353 m 1178 360 l
s 1178 358 m 1180 358 l s 1181 356 m 1181 353 l s 1186 356 m 1186 355 l
s 1183 355 m 1183 356 l s 1028 364 m 1028 376 l 1166 376 l
s 1097 376 m 1097 396 l s 1097 404 m 1088 396 l 1106 396 l
s 1166 364 m 1166 376 l s 1106 396 m 1097 404 l s 809 465 m 809 480 l
1097 480 l s 891 480 m 891 500 l s 891 509 m 882 500 l 900 500 l
s 1097 465 m 1097 480 l s 900 500 m 891 509 l s gs 204 18 tr 0.3039 0.3037 sc
-9859.4927 235.0591 tr [ 1 0 0 1 13420.94913197 894.07157214 ] co 0 sw
0 sj 10 sm np 0 0 m 359.8102 0 l 359.8102 -199.1804 l 0 -199.1804 l cp s gr
1286 330 m 1395 330 l s 1286 346 m 1395 346 l s 1315 357 m 1315 353 l
s 1319 353 m 1319 357 l s 1321 348 m 1321 355 l 1323 355 l
s 1324 354 m 1324 352 l s 1323 351 m 1321 351 l s 1330 357 m 1330 351 l
1328 351 l s 1326 352 m 1326 354 l s 1328 355 m 1330 355 l
s 1332 355 m 1334 355 l s 1335 354 m 1335 351 l 1333 351 l
s 1333 353 m 1335 353 l s 1338 351 m 1338 357 l s 1337 355 m 1339 355 l
s 1345 351 m 1343 351 l s 1342 352 m 1342 354 l s 1345 354 m 1345 353 l
1342 353 l s 1349 351 m 1349 357 l s 1347 357 m 1351 357 l
s 1353 348 m 1354 348 l 1356 355 l s 1353 355 m 1355 351 l
s 1358 348 m 1358 355 l 1360 355 l s 1361 354 m 1361 352 l
s 1360 351 m 1358 351 l s 1367 351 m 1365 351 l s 1364 352 m 1364 354 l
s 1367 354 m 1367 353 l 1364 353 l s gs 204 18 tr 0.3039 0.3037 sc
-9859.4927 235.0591 tr [ 1 0 0 1 13093.69460836 1526.61891515 ] co 0 sw
0 sj 10 sm np 0 0 m 368.4238 0 l 368.4238 -199.1804 l 0 -199.1804 l cp s gr
1186 522 m 1298 522 l s 1186 538 m 1298 538 l s 1187 543 m 1187 549 l
1190 546 l 1192 549 l 1192 543 l 1192 543 l s 1194 547 m 1196 547 l
s 1197 546 m 1197 543 l 1195 543 l s 1195 545 m 1197 545 l
s 1200 543 m 1200 549 l s 1199 547 m 1201 547 l s 1203 543 m 1203 549 l
s 1203 547 m 1205 547 l s 1206 546 m 1206 543 l s 1211 543 m 1210 543 l
s 1209 544 m 1209 546 l s 1211 546 m 1211 545 l 1209 545 l
s 1214 543 m 1214 547 l 1217 547 l s 1218 546 m 1218 543 l
s 1216 543 m 1216 547 l s 1221 547 m 1222 547 l s 1223 546 m 1223 543 l
1221 543 l s 1221 545 m 1223 545 l s 1226 543 m 1226 549 l
s 1225 547 m 1227 547 l s 1230 543 m 1230 547 l s 1230 549 m 1230 549 l
s 1234 543 m 1233 543 l s 1232 544 m 1232 546 l s 1233 547 m 1234 547 l
s 1237 547 m 1238 547 l s 1239 546 m 1239 543 l 1237 543 l
s 1237 545 m 1239 545 l s 1241 544 m 1241 549 l s 1244 545 m 1244 548 l
s 1248 548 m 1248 545 l s 1250 541 m 1250 547 l 1252 547 l
s 1253 546 m 1253 544 l s 1252 543 m 1250 543 l s 1256 543 m 1256 549 l
s 1255 547 m 1257 547 l s 1260 543 m 1260 547 l s 1260 549 m 1260 549 l
s 1262 543 m 1262 547 l 1265 547 l s 1266 546 m 1266 543 l
s 1264 543 m 1264 547 l s 1268 543 m 1268 547 l s 1268 549 m 1268 549 l
s 1271 547 m 1273 547 l 1271 543 l 1273 543 l 1273 543 l
s 1276 547 m 1277 547 l s 1279 546 m 1279 543 l 1277 543 l
s 1277 545 m 1279 545 l s 1281 543 m 1281 549 l s 1281 547 m 1283 547 l
s 1285 543 m 1285 547 l s 1285 549 m 1285 549 l s 1290 546 m 1290 544 l
s 1287 544 m 1287 546 l s 1292 543 m 1292 547 l 1294 547 l
s 1295 546 m 1295 543 l s gs 204 18 tr 0.3039 0.3037 sc -9859.4927 235.0591 tr
[ 1 0 0 1 13421.51908942 1192.03035137 ] co 0 sw 0 sj 10 sm np 0 0 m
359.8102 0 l 359.8102 -199.1804 l 0 -199.1804 l cp s gr 1286 421 m 1395 421 l
s 1286 436 m 1395 436 l s 1320 442 m 1320 445 l s 1324 445 m 1324 442 l
s 1329 440 m 1328 440 l s 1326 442 m 1326 445 l s 1328 447 m 1329 447 l
s 1332 440 m 1332 447 l 1334 443 l 1336 447 l 1336 440 l 1336 440 l
s 1341 440 m 1340 440 l s 1338 441 m 1338 443 l s 1341 443 m 1341 442 l
1338 442 l s 1345 440 m 1345 447 l s 1344 445 m 1346 445 l
s 1348 440 m 1348 447 l s 1348 445 m 1350 445 l s 1351 443 m 1351 440 l
s 1357 443 m 1357 442 l s 1354 442 m 1354 443 l s 1362 447 m 1362 440 l
1360 440 l s 1359 441 m 1359 443 l s 1360 445 m 1362 445 l
s 967 782 m 831 782 l 839 791 l s 831 782 m 839 774 l s 1341 390 m 1341 361 l
1332 369 l s 1341 361 m 1349 369 l s 1242 463 m 1242 483 l
s 1242 492 m 1234 483 l 1251 483 l cp s 1242 463 m 1341 463 l
s 1341 451 m 1341 463 l s 1242 552 m 1242 573 l s 1242 581 m 1234 573 l
1251 573 l cp s 891 629 m 891 569 l 900 578 l s 891 569 m 882 578 l
s 998 658 m 998 690 l 1006 682 l s 998 690 m 989 682 l s 1242 642 m 1242 658 l
998 658 l s 891 629 m 954 629 l 954 690 l s 967 751 m 967 782 l
% Pop paperspace viewport clip path
gr s
showpage
%%Trailer
restore
%%DocumentFonts:
%%DocumentNeededFonts:
