\relax 
\providecommand\hyper@newdestlabel[2]{}
\providecommand*\new@tpo@label[2]{}
\catcode `"\active 
\providecommand\HyperFirstAtBeginDocument{\AtBeginDocument}
\HyperFirstAtBeginDocument{\ifx\hyper@anchor\@undefined
\global\let\oldcontentsline\contentsline
\gdef\contentsline#1#2#3#4{\oldcontentsline{#1}{#2}{#3}}
\global\let\oldnewlabel\newlabel
\gdef\newlabel#1#2{\newlabelxx{#1}#2}
\gdef\newlabelxx#1#2#3#4#5#6{\oldnewlabel{#1}{{#2}{#3}}}
\AtEndDocument{\ifx\hyper@anchor\@undefined
\let\contentsline\oldcontentsline
\let\newlabel\oldnewlabel
\fi}
\fi}
\global\let\hyper@last\relax 
\gdef\HyperFirstAtBeginDocument#1{#1}
\providecommand\HyField@AuxAddToFields[1]{}
\providecommand\HyField@AuxAddToCoFields[2]{}
\providecommand \oddpage@label [2]{}
\babel@aux{ngerman}{}
\citation{Bendse.2004}
\citation{Wiedemann.2007}
\@writefile{toc}{\contentsline {section}{\numberline {1}Einleitung}{1}{section.1}}
\@writefile{toc}{\contentsline {subsection}{\numberline {1.1}Motivation}{1}{subsection.1.1}}
\@writefile{lof}{\contentsline {figure}{\numberline {1.1}{\ignorespaces Vergleich materialoptimierter Strukturen\relax }}{1}{figure.caption.1}}
\@writefile{toc}{\contentsline {subsection}{\numberline {1.2}Zielsetzung}{2}{subsection.1.2}}
\@writefile{toc}{\contentsline {subsection}{\numberline {1.3}Gliederung der Arbeit}{2}{subsection.1.3}}
\citation{Schwarz.2001}
\citation{ortmann.}
\citation{Ortmann.2014}
\citation{Dienemann.}
\citation{maute}
\citation{geometricTopOpt}
\citation{sigmund.}
\citation{Bendsoe_Kikuchi}
\citation{maute}
\citation{sigmund.}
\citation{Bendsoe_Kikuchi}
\citation{.e}
\citation{.d}
\@writefile{toc}{\contentsline {section}{\numberline {2}Grundlagen der Topologieoptimierung}{5}{section.2}}
\@writefile{toc}{\contentsline {subsection}{\numberline {2.1}Klassifizierung in der Strukturoptimierung}{5}{subsection.2.1}}
\citation{maute}
\citation{maute}
\citation{MatthiasBaitsch.2003}
\citation{MatthiasBaitsch.09.01.2018}
\@writefile{lof}{\contentsline {figure}{\numberline {2.1}{\ignorespaces Methoden der Topologieoptimierung}}{6}{figure.caption.2}}
\@writefile{lof}{\contentsline {figure}{\numberline {2.2}{\ignorespaces Darstellung einer Formoptimierung mit BOfem}}{7}{figure.caption.3}}
\@writefile{lof}{\contentsline {figure}{\numberline {2.3}{\ignorespaces Darstellung einer Querschnittsoptimierung mit BOfem}}{7}{figure.caption.4}}
\citation{MatthiasBaitsch.2003}
\citation{Lawo.1987}
\citation{Papageorgiou.2015}
\citation{Schumacher.2013}
\citation{MatthiasBaitsch.2003}
\@writefile{lof}{\contentsline {figure}{\numberline {2.4}{\ignorespaces Optimierung eines Fachwerkbogens mit BOfem}}{8}{figure.caption.5}}
\@writefile{toc}{\contentsline {subsection}{\numberline {2.2}Mathematisches Optimierungsproblem}{9}{subsection.2.2}}
\@writefile{toc}{\contentsline {subsection}{\numberline {2.3}Konventionelle Ans\IeC {\"a}tze}{9}{subsection.2.3}}
\@writefile{toc}{\contentsline {subsubsection}{\numberline {2.3.1}Finite Element-Methode}{11}{subsubsection.2.3.1}}
\@writefile{lof}{\contentsline {figure}{\numberline {2.5}{\ignorespaces Diskretisiertes Kontinuum\relax }}{11}{figure.caption.6}}
\@writefile{toc}{\contentsline {subsubsection}{\numberline {2.3.2}Formulierung der Materialdichte}{11}{subsubsection.2.3.2}}
\citation{Bendsoe_matDistr}
\citation{Bendse.1999}
\citation{simp}
\citation{Bendse.1999}
\@writefile{lof}{\contentsline {figure}{\numberline {2.6}{\ignorespaces SIMP - Einfluss des Penalty-Faktors\relax }}{12}{figure.caption.7}}
\citation{StolpeM.2001}
\citation{DCOC-Part-1}
\citation{DCOC-Part-2}
\citation{Hassani}
\citation{sigmund.}
\@writefile{lof}{\contentsline {figure}{\numberline {2.7}{\ignorespaces Dichteverteilung: RAMP vs. SIMP\relax }}{13}{figure.caption.8}}
\@writefile{toc}{\contentsline {subsection}{\numberline {2.4}Optimalit\IeC {\"a}tskriterienverfahren}{13}{subsection.2.4}}
\citation{sigmund.}
\citation{.e}
\citation{.d}
\@writefile{lof}{\contentsline {figure}{\numberline {2.8}{\ignorespaces Flowchart: OC-Verfahren\relax }}{15}{figure.caption.9}}
\@writefile{lof}{\contentsline {figure}{\numberline {2.9}{\ignorespaces Heuristisches Update-Schema\relax }}{16}{figure.caption.10}}
\citation{checkerboard}
\citation{Diaz.1995}
\citation{sigmund.}
\citation{Sigmund.2007}
\@writefile{toc}{\contentsline {section}{\numberline {3}Regularisierungsverfahren}{17}{section.3}}
\@writefile{toc}{\contentsline {subsection}{\numberline {3.1}Motivation zur Einf\IeC {\"u}hrung von Filtertechniken}{17}{subsection.3.1}}
\@writefile{lof}{\contentsline {figure}{\numberline {3.1}{\ignorespaces Checkerboard-Ph\IeC {\"a}nomen}}{17}{figure.caption.11}}
\citation{sigmund.}
\citation{sensitivityF}
\@writefile{toc}{\contentsline {subsection}{\numberline {3.2}Sensitivit\IeC {\"a}tenfilter}{18}{subsection.3.2}}
\@writefile{lof}{\contentsline {figure}{\numberline {3.2}{\ignorespaces Filterradius $r_{rmin}$ und Wichtungsfunktion/-kegel $w(x_i)$ vom Element $x_e$\relax }}{18}{figure.caption.12}}
\citation{Sigmund.2007}
\@writefile{lof}{\contentsline {figure}{\numberline {3.3}{\ignorespaces Sensitivit\IeC {\"a}tenfilter zur Regularisierung des Schachbrettmusters\relax }}{19}{figure.caption.13}}
\citation{densityF}
\citation{bourdin}
\citation{densityWeight}
\@writefile{toc}{\contentsline {subsection}{\numberline {3.3}Dichtefilter}{20}{subsection.3.3}}
\citation{heaviSideFilter}
\@writefile{lof}{\contentsline {figure}{\numberline {3.4}{\ignorespaces Approximation der Heaviside Funktion\relax }}{21}{figure.caption.14}}
\citation{.d}
\@writefile{toc}{\contentsline {subsection}{\numberline {3.4}Gegen\IeC {\"u}berstellung der Implementierung}{22}{subsection.3.4}}
\@writefile{loa}{\contentsline {algocf}{\numberline {1}{\ignorespaces OC-Method with Sensitivity- or Bruns-Tortorelli Densityfilter\relax }}{22}{algocf.1}}
\@writefile{loa}{\contentsline {algocf}{\numberline {2}{\ignorespaces OC-Method with Heaviside Densityfilter\relax }}{23}{algocf.2}}
\citation{Junker.2015}
\citation{Junker.2016}
\citation{Jantos.2016}
\citation{Jantos.2018b}
\citation{Jantos.2018}
\citation{Jantos.2019}
\citation{Jantos.2019b}
\@writefile{toc}{\contentsline {section}{\numberline {4}Thermodynamische Topologieoptimierung}{25}{section.4}}
\@writefile{toc}{\contentsline {subsection}{\numberline {4.1}Einleitung}{25}{subsection.4.1}}
\citation{Junker.}
\citation{Hackl.2008}
\citation{bedford}
\citation{Holzapfel.2010}
\citation{Gelfand.2012}
\@writefile{toc}{\contentsline {subsection}{\numberline {4.2}Hamilton-Prinzip}{26}{subsection.4.2}}
\citation{Waimann.}
\citation{Junker.}
\@writefile{toc}{\contentsline {subsection}{\numberline {4.3}Evolutionskomponente der internen Variablen}{28}{subsection.4.3}}
\citation{Jantos.2016}
\citation{damage}
\citation{Dimitrijevic.2011}
\citation{Jantos.2019}
\@writefile{toc}{\contentsline {subsection}{\numberline {4.4}Variationsrechnung}{31}{subsection.4.4}}
\citation{Jantos.2019}
\@writefile{toc}{\contentsline {subsection}{\numberline {4.5}Programmablauf}{32}{subsection.4.5}}
\citation{Jantos.2019}
\@writefile{lof}{\contentsline {figure}{\numberline {4.1}{\ignorespaces Flowchart: TTO}}{33}{figure.caption.15}}
\citation{Jantos.2019}
\@writefile{loa}{\contentsline {algocf}{\numberline {3}{\ignorespaces Inner loop with evolution equation and bisection method\relax }}{34}{algocf.3}}
\citation{BrandtPook.2015}
\citation{BrandtPook.2015}
\citation{BrandtPook.2015}
\citation{Boles.2013}
\citation{Ernst.2015}
\citation{Pietruszka.2014}
\citation{Pietruszka.2014}
\citation{Thuselt.2013}
\@writefile{toc}{\contentsline {section}{\numberline {5}Implementierung}{35}{section.5}}
\@writefile{toc}{\contentsline {subsection}{\numberline {5.1}Grundlegendes}{35}{subsection.5.1}}
\@writefile{lof}{\contentsline {figure}{\numberline {5.1}{\ignorespaces Wasserfallmodell in der Softwareentwicklung}}{35}{figure.caption.16}}
\citation{Muller.2015}
\citation{Ernst.2015}
\citation{CarstenHeniger.21.6.2000}
\citation{MatthiasBaitsch.2003}
\@writefile{toc}{\contentsline {subsection}{\numberline {5.2}Objektorientiertes Paradigma}{36}{subsection.5.2}}
\@writefile{toc}{\contentsline {subsection}{\numberline {5.3}Architektur des Programms}{37}{subsection.5.3}}
\@writefile{lof}{\contentsline {figure}{\numberline {5.2}{\ignorespaces Progammarchitektur in Komponentendarstellung\relax }}{37}{figure.caption.17}}
\@writefile{toc}{\contentsline {subsection}{\numberline {5.4}Funktionsweise der Klassen}{38}{subsection.5.4}}
\@writefile{lof}{\contentsline {figure}{\numberline {5.3}{\ignorespaces Klassendiagramm Systempaket\relax }}{39}{figure.caption.18}}
\citation{.e}
\@writefile{lof}{\contentsline {figure}{\numberline {5.4}{\ignorespaces Aufbau des Optimierungspakets\relax }}{40}{figure.caption.19}}
\@writefile{lof}{\contentsline {figure}{\numberline {5.5}{\ignorespaces UML-Diagramm der Filterklassen\relax }}{41}{figure.caption.20}}
\citation{.e}
\@writefile{lof}{\contentsline {figure}{\numberline {5.6}{\ignorespaces Klassendiagramm der OptimizationMethod\relax }}{42}{figure.caption.21}}
\citation{Sigmund.2007}
\@writefile{toc}{\contentsline {section}{\numberline {6}Numerische Auswertung}{45}{section.6}}
\@writefile{toc}{\contentsline {subsection}{\numberline {6.1}Allgemeines}{45}{subsection.6.1}}
\@writefile{toc}{\contentsline {subsection}{\numberline {6.2}MBB-Balken}{45}{subsection.6.2}}
\@writefile{lof}{\contentsline {figure}{\numberline {6.1}{\ignorespaces Messerschmitt-B\IeC {\"o}lkow-Blohm Balken\relax }}{46}{figure.caption.22}}
\@writefile{lof}{\contentsline {figure}{\numberline {6.2}{\ignorespaces Sensitivit\IeC {\"a}ten- und Dichtefilter\relax }}{46}{figure.caption.23}}
\@writefile{lof}{\contentsline {figure}{\numberline {6.3}{\ignorespaces Heavisidefilter und TTO\relax }}{47}{figure.caption.24}}
\@writefile{lot}{\contentsline {table}{\numberline {1}{\ignorespaces Auswertung der Regularisierungsverfahren\relax }}{47}{table.caption.25}}
\@writefile{lof}{\contentsline {figure}{\numberline {6.4}{\ignorespaces Konvergenzvergleich\relax }}{48}{figure.caption.26}}
\@writefile{toc}{\contentsline {subsection}{\numberline {6.3}Beidseitig eingespannter Balken}{48}{subsection.6.3}}
\@writefile{lof}{\contentsline {figure}{\numberline {6.5}{\ignorespaces Beidseitig eingespannter Balken\relax }}{49}{figure.caption.27}}
\@writefile{lof}{\contentsline {figure}{\numberline {6.6}{\ignorespaces Sensitivit\IeC {\"a}ten- und Dichtefilter\relax }}{49}{figure.caption.28}}
\@writefile{lof}{\contentsline {figure}{\numberline {6.7}{\ignorespaces Heavisidefilter und TTO\relax }}{50}{figure.caption.29}}
\@writefile{lot}{\contentsline {table}{\numberline {2}{\ignorespaces Auswertung der Regularisierungsverfahren\relax }}{50}{table.caption.30}}
\@writefile{lof}{\contentsline {figure}{\numberline {6.8}{\ignorespaces Konvergenzvergleich\relax }}{51}{figure.caption.31}}
\@writefile{toc}{\contentsline {subsection}{\numberline {6.4}L-f\IeC {\"o}rmiger Kragbalken}{51}{subsection.6.4}}
\@writefile{lof}{\contentsline {figure}{\numberline {6.9}{\ignorespaces L-f\IeC {\"o}rmiger Kragbalken\relax }}{52}{figure.caption.32}}
\@writefile{lof}{\contentsline {figure}{\numberline {6.10}{\ignorespaces Sensitivit\IeC {\"a}ten- und Dichtefilter\relax }}{52}{figure.caption.33}}
\@writefile{lof}{\contentsline {figure}{\numberline {6.11}{\ignorespaces Heavisidefilter und TTO\relax }}{53}{figure.caption.34}}
\@writefile{lot}{\contentsline {table}{\numberline {3}{\ignorespaces Auswertung der Regularisierungsverfahren\relax }}{53}{table.caption.35}}
\@writefile{lof}{\contentsline {figure}{\numberline {6.12}{\ignorespaces Konvergenzvergleich\relax }}{54}{figure.caption.36}}
\@writefile{toc}{\contentsline {subsection}{\numberline {6.5}SIMP vs. RAMP: Einfacher Balken mit \IeC {\"O}ffnungen}{54}{subsection.6.5}}
\@writefile{lof}{\contentsline {figure}{\numberline {6.13}{\ignorespaces Einfacher Balken mit \IeC {\"O}ffnungen\relax }}{55}{figure.caption.37}}
\@writefile{lof}{\contentsline {figure}{\numberline {6.14}{\ignorespaces Sensitivit\IeC {\"a}ten- und Dichtefilter\relax }}{55}{figure.caption.38}}
\@writefile{lof}{\contentsline {figure}{\numberline {6.15}{\ignorespaces Heavisidefilter und TTO\relax }}{56}{figure.caption.39}}
\@writefile{lot}{\contentsline {table}{\numberline {4}{\ignorespaces Auswertung der Regularisierungsverfahren\relax }}{56}{table.caption.40}}
\@writefile{lof}{\contentsline {figure}{\numberline {6.16}{\ignorespaces Konvergenzvergleich\relax }}{57}{figure.caption.41}}
\@writefile{toc}{\contentsline {subsection}{\numberline {6.6}Zusatzthema: Stochastische Lasten}{57}{subsection.6.6}}
\@writefile{toc}{\contentsline {subsubsection}{\numberline {6.6.1}T-f\IeC {\"o}rmiger Kragbalken}{58}{subsubsection.6.6.1}}
\@writefile{lof}{\contentsline {figure}{\numberline {6.17}{\ignorespaces T-f\IeC {\"o}rmiger Kragbalken\relax }}{58}{figure.caption.42}}
\@writefile{lof}{\contentsline {figure}{\numberline {6.18}{\ignorespaces Stochastische Auswertung\relax }}{59}{figure.caption.43}}
\@writefile{toc}{\contentsline {subsubsection}{\numberline {6.6.2}Scheibenf\IeC {\"o}rmige Problemstruktur}{59}{subsubsection.6.6.2}}
\@writefile{lof}{\contentsline {figure}{\numberline {6.19}{\ignorespaces Scheibenf\IeC {\"o}rmige Problemstruktur\relax }}{59}{figure.caption.44}}
\@writefile{lof}{\contentsline {figure}{\numberline {6.20}{\ignorespaces Stochastische Auswertung\relax }}{60}{figure.caption.45}}
\citation{sigmund.}
\citation{densityF}
\citation{heaviSideFilter}
\@writefile{toc}{\contentsline {section}{\numberline {7}Zusammenfassung und Ausblick}{61}{section.7}}
\@writefile{toc}{\contentsline {subsection}{\numberline {7.1}Zusammenfassung}{61}{subsection.7.1}}
\@writefile{toc}{\contentsline {subsection}{\numberline {7.2}Ausblick}{62}{subsection.7.2}}
\citation{*}
\bibstyle{abbrvdin}
\bibdata{content/references}
\bibcite{Altenbach.2018}{1}
\bibcite{.d}{2}
\bibcite{MatthiasBaitsch.09.01.2018}{3}
\bibcite{MatthiasBaitsch.2003}{4}
\bibcite{bedford}{5}
\bibcite{Bendsoe_matDistr}{6}
\bibcite{Bendsoe_Kikuchi}{7}
\bibcite{Bendse.1999}{8}
\bibcite{Bendse.2004}{9}
\bibcite{Boles.2013}{10}
\bibcite{bourdin}{11}
\bibcite{BrandtPook.2015}{12}
\@writefile{toc}{\contentsline {section}{Literaturverzeichnis}{63}{subsection.7.2}}
\bibcite{densityF}{13}
\bibcite{densityWeight}{14}
\bibcite{Diaz.1995}{15}
\bibcite{Dienemann.}{16}
\bibcite{damage}{17}
\bibcite{Dimitrijevic.2011}{18}
\bibcite{Ernst.2015}{19}
\bibcite{Ferrer.2019}{20}
\bibcite{Gaganelis.2019}{21}
\bibcite{Gelfand.2012}{22}
\bibcite{heaviSideFilter}{23}
\bibcite{Hackl.2008}{24}
\bibcite{Hassani}{25}
\bibcite{CarstenHeniger.21.6.2000}{26}
\bibcite{Holzapfel.2010}{27}
\bibcite{Jantos.2018}{28}
\bibcite{Jantos.2019}{29}
\bibcite{Jantos.2016}{30}
\bibcite{Jantos.2019b}{31}
\bibcite{Jantos.2018b}{32}
\bibcite{checkerboard}{33}
\bibcite{Junker.}{34}
\bibcite{Junker.2015}{35}
\bibcite{Junker.2016}{36}
\bibcite{Lawo.1987}{37}
\bibcite{maute}{38}
\bibcite{Muller.2015}{39}
\bibcite{ortmann.}{40}
\bibcite{Ortmann.2014}{41}
\bibcite{Papageorgiou.2015}{42}
\bibcite{Pietruszka.2014}{43}
\bibcite{simp}{44}
\bibcite{Schumacher.2013}{45}
\bibcite{Schwarz.2001}{46}
\bibcite{Schwarz.}{47}
\bibcite{.e}{48}
\bibcite{Sigmund.2007}{49}
\bibcite{sigmund.}{50}
\bibcite{sensitivityF}{51}
\bibcite{StolpeM.2001}{52}
\bibcite{Thuselt.2013}{53}
\bibcite{Waimann.}{54}
\bibcite{geometricTopOpt}{55}
\bibcite{Wiedemann.2007}{56}
\bibcite{DCOC-Part-1}{57}
\bibcite{DCOC-Part-2}{58}
\citation{Bendse.2004}
\@writefile{toc}{\contentsline {section}{\numberline {A}Herleitungen}{69}{appendix.A}}
\@writefile{toc}{\contentsline {subsection}{\numberline {A.1}Sensitivit\IeC {\"a}tsanalyse}{69}{subsection.A.1}}
\citation{Junker.}
\citation{Waimann.}
\citation{Schwarz.}
\@writefile{toc}{\contentsline {subsection}{\numberline {A.2}Thermodynamische Triebkraft}{70}{subsection.A.2}}
\@writefile{toc}{\contentsline {section}{\numberline {B}Matlab-Code}{72}{appendix.B}}
\@writefile{toc}{\contentsline {subsection}{\numberline {B.1}Modellierug des L-f\IeC {\"o}rmigen Kragbalkens}{72}{subsection.B.1}}
\@writefile{lol}{\contentsline {lstlisting}{[}{72}{lstlisting.-1}}
\@writefile{lof}{\contentsline {figure}{\numberline {B.1}{\ignorespaces L-f\IeC {\"o}rmiger Kragbalken\relax }}{73}{figure.caption.46}}
\@writefile{lof}{\contentsline {figure}{\numberline {B.2}{\ignorespaces Factory Klassendiagramm\relax }}{74}{figure.caption.47}}
\@writefile{toc}{\contentsline {subsection}{\numberline {B.2}Optimierung des L-f\IeC {\"o}rmigen Kragbalkens}{74}{subsection.B.2}}
\@writefile{lol}{\contentsline {lstlisting}{[}{74}{lstlisting.-10}}
\@writefile{lol}{\contentsline {lstlisting}{[}{75}{lstlisting.-14}}
\@writefile{lof}{\contentsline {figure}{\numberline {B.3}{\ignorespaces Verlauf der Zielfunktion\relax }}{76}{figure.caption.48}}
\@writefile{lof}{\contentsline {figure}{\numberline {B.4}{\ignorespaces Optimierte Struktur\relax }}{76}{figure.caption.49}}
\@writefile{toc}{\contentsline {subsection}{\numberline {B.3}Monte-Carlo-Simulation des T-f\IeC {\"o}rmigen Kragbalkens}{77}{subsection.B.3}}
\@writefile{lol}{\contentsline {lstlisting}{[}{77}{lstlisting.-18}}
\@writefile{lof}{\contentsline {figure}{\numberline {B.5}{\ignorespaces MonteCarloSimulation Klassendiagramm\relax }}{77}{figure.caption.50}}
\@writefile{toc}{\contentsline {section}{Eidesstattliche Erkl\IeC {\"a}rung}{79}{lstnumber.-20.5}}
\global\@namedef{scr@dte@section@lastmaxnumwidth}{14.35474pt}
\global\@namedef{scr@dte@subsection@lastmaxnumwidth}{22.6416pt}
\global\@namedef{scr@dte@subsubsection@lastmaxnumwidth}{28.84563pt}
\global\@namedef{scr@dte@figure@lastmaxnumwidth}{25.58255pt}
