\relax 
\providecommand\hyper@newdestlabel[2]{}
\providecommand\HyperFirstAtBeginDocument{\AtBeginDocument}
\HyperFirstAtBeginDocument{\ifx\hyper@anchor\@undefined
\global\let\oldcontentsline\contentsline
\gdef\contentsline#1#2#3#4{\oldcontentsline{#1}{#2}{#3}}
\global\let\oldnewlabel\newlabel
\gdef\newlabel#1#2{\newlabelxx{#1}#2}
\gdef\newlabelxx#1#2#3#4#5#6{\oldnewlabel{#1}{{#2}{#3}}}
\AtEndDocument{\ifx\hyper@anchor\@undefined
\let\contentsline\oldcontentsline
\let\newlabel\oldnewlabel
\fi}
\fi}
\global\let\hyper@last\relax 
\gdef\HyperFirstAtBeginDocument#1{#1}
\providecommand\HyField@AuxAddToFields[1]{}
\providecommand\HyField@AuxAddToCoFields[2]{}
\catcode `"\active 
\select@language{ngerman}
\@writefile{toc}{\select@language{ngerman}}
\@writefile{lof}{\select@language{ngerman}}
\@writefile{lot}{\select@language{ngerman}}
\@writefile{nav}{\headcommand {\slideentry {0}{0}{1}{1/1}{}{0}}}
\@writefile{nav}{\headcommand {\beamer@framepages {1}{1}}}
\pgfsyspdfmark {pgfid1}{1864679}{15690014}
\pgfsyspdfmark {pgfid2}{1864679}{15690014}
\pgfsyspdfmark {pgfid3}{1864679}{15690014}
\pgfsyspdfmark {pgfid4}{1864679}{15690014}
\pgfsyspdfmark {pgfid5}{1864679}{15690014}
\pgfsyspdfmark {pgfid6}{1864679}{15690014}
\@writefile{nav}{\headcommand {\slideentry {0}{0}{2}{2/7}{}{0}}}
\@writefile{nav}{\headcommand {\beamer@framepages {2}{7}}}
\pgfsyspdfmark {pgfid7}{1864679}{15690014}
\pgfsyspdfmark {pgfid8}{1864679}{15690014}
\pgfsyspdfmark {pgfid9}{1864679}{15690014}
\pgfsyspdfmark {pgfid10}{1864679}{15690014}
\@writefile{nav}{\headcommand {\slideentry {0}{0}{3}{8/11}{}{0}}}
\@writefile{nav}{\headcommand {\beamer@framepages {8}{11}}}
\pgfsyspdfmark {pgfid11}{1864679}{15690014}
\pgfsyspdfmark {pgfid12}{1864679}{15690014}
\pgfsyspdfmark {pgfid13}{1864679}{15690014}
\pgfsyspdfmark {pgfid14}{1864679}{15690014}
\@writefile{nav}{\headcommand {\slideentry {0}{0}{4}{12/15}{}{0}}}
\@writefile{nav}{\headcommand {\beamer@framepages {12}{15}}}
\pgfsyspdfmark {pgfid15}{1864679}{15690014}
\pgfsyspdfmark {pgfid16}{1864679}{15690014}
\pgfsyspdfmark {pgfid17}{1864679}{15690014}
\@writefile{nav}{\headcommand {\slideentry {0}{0}{5}{16/18}{}{0}}}
\@writefile{nav}{\headcommand {\beamer@framepages {16}{18}}}
\pgfsyspdfmark {pgfid19}{1864679}{15690014}
\pgfsyspdfmark {pgfid21}{1864679}{15690014}
\pgfsyspdfmark {pgfid23}{1864679}{15690014}
\pgfsyspdfmark {pgfid25}{1864679}{15690014}
\@writefile{nav}{\headcommand {\slideentry {0}{0}{6}{19/22}{}{0}}}
\@writefile{nav}{\headcommand {\beamer@framepages {19}{22}}}
\pgfsyspdfmark {pgfid27}{1864679}{15690014}
\pgfsyspdfmark {pgfid29}{1864679}{15690014}
\pgfsyspdfmark {pgfid31}{1864679}{15690014}
\@writefile{nav}{\headcommand {\slideentry {0}{0}{7}{23/25}{}{0}}}
\@writefile{nav}{\headcommand {\beamer@framepages {23}{25}}}
\pgfsyspdfmark {pgfid32}{1864679}{15690014}
\pgfsyspdfmark {pgfid33}{1864679}{15690014}
\pgfsyspdfmark {pgfid34}{1864679}{15690014}
\pgfsyspdfmark {pgfid35}{1864679}{15690014}
\@writefile{nav}{\headcommand {\slideentry {0}{0}{8}{26/29}{}{0}}}
\@writefile{nav}{\headcommand {\beamer@framepages {26}{29}}}
\pgfsyspdfmark {pgfid36}{1864679}{15690014}
\pgfsyspdfmark {pgfid37}{1864679}{15690014}
\@writefile{nav}{\headcommand {\slideentry {0}{0}{9}{30/31}{}{0}}}
\@writefile{nav}{\headcommand {\beamer@framepages {30}{31}}}
\pgfsyspdfmark {pgfid38}{1864679}{15690014}
\pgfsyspdfmark {pgfid39}{1864679}{15690014}
\pgfsyspdfmark {pgfid40}{1864679}{15690014}
\pgfsyspdfmark {pgfid41}{1864679}{15690014}
\@writefile{nav}{\headcommand {\slideentry {0}{0}{10}{32/35}{}{0}}}
\@writefile{nav}{\headcommand {\beamer@framepages {32}{35}}}
\pgfsyspdfmark {pgfid42}{1864679}{15690014}
\pgfsyspdfmark {pgfid43}{1864679}{15690014}
\@writefile{nav}{\headcommand {\slideentry {0}{0}{11}{36/37}{}{0}}}
\@writefile{nav}{\headcommand {\beamer@framepages {36}{37}}}
\pgfsyspdfmark {pgfid44}{1864679}{15690014}
\@writefile{nav}{\headcommand {\slideentry {0}{0}{12}{38/38}{}{0}}}
\@writefile{nav}{\headcommand {\beamer@framepages {38}{38}}}
\pgfsyspdfmark {pgfid45}{1864679}{15690014}
\pgfsyspdfmark {pgfid46}{1864679}{15690014}
\pgfsyspdfmark {pgfid47}{1864679}{15690014}
\@writefile{nav}{\headcommand {\slideentry {0}{0}{13}{39/41}{}{0}}}
\@writefile{nav}{\headcommand {\beamer@framepages {39}{41}}}
\pgfsyspdfmark {pgfid48}{1864679}{15690014}
\pgfsyspdfmark {pgfid49}{1864679}{15690014}
\@writefile{nav}{\headcommand {\slideentry {0}{0}{14}{42/43}{}{0}}}
\@writefile{nav}{\headcommand {\beamer@framepages {42}{43}}}
\pgfsyspdfmark {pgfid50}{1864679}{15690014}
\pgfsyspdfmark {pgfid51}{1864679}{15690014}
\pgfsyspdfmark {pgfid52}{1864679}{15690014}
\pgfsyspdfmark {pgfid53}{1864679}{15690014}
\pgfsyspdfmark {pgfid54}{1864679}{15690014}
\pgfsyspdfmark {pgfid55}{1864679}{15690014}
\pgfsyspdfmark {pgfid56}{1864679}{15690014}
\@writefile{nav}{\headcommand {\slideentry {0}{0}{15}{44/50}{}{0}}}
\@writefile{nav}{\headcommand {\beamer@framepages {44}{50}}}
\pgfsyspdfmark {pgfid57}{1864679}{15690014}
\pgfsyspdfmark {pgfid58}{1864679}{15690014}
\pgfsyspdfmark {pgfid59}{1864679}{15690014}
\@writefile{nav}{\headcommand {\slideentry {0}{0}{16}{51/53}{}{0}}}
\@writefile{nav}{\headcommand {\beamer@framepages {51}{53}}}
\pgfsyspdfmark {pgfid60}{1864679}{15690014}
\pgfsyspdfmark {pgfid61}{1864679}{15690014}
\pgfsyspdfmark {pgfid62}{1864679}{15690014}
\@writefile{nav}{\headcommand {\slideentry {0}{0}{17}{54/56}{}{0}}}
\@writefile{nav}{\headcommand {\beamer@framepages {54}{56}}}
\pgfsyspdfmark {pgfid63}{1864679}{15690014}
\pgfsyspdfmark {pgfid64}{1864679}{15690014}
\@writefile{nav}{\headcommand {\slideentry {0}{0}{18}{57/58}{}{0}}}
\@writefile{nav}{\headcommand {\beamer@framepages {57}{58}}}
\pgfsyspdfmark {pgfid65}{1864679}{15690014}
\pgfsyspdfmark {pgfid66}{1864679}{15690014}
\@writefile{nav}{\headcommand {\slideentry {0}{0}{19}{59/60}{}{0}}}
\@writefile{nav}{\headcommand {\beamer@framepages {59}{60}}}
\pgfsyspdfmark {pgfid67}{1864679}{15690014}
\pgfsyspdfmark {pgfid68}{1864679}{15690014}
\pgfsyspdfmark {pgfid69}{1864679}{15690014}
\@writefile{nav}{\headcommand {\slideentry {0}{0}{20}{61/63}{}{0}}}
\@writefile{nav}{\headcommand {\beamer@framepages {61}{63}}}
\pgfsyspdfmark {pgfid70}{1864679}{15690014}
\@writefile{nav}{\headcommand {\slideentry {0}{0}{21}{64/64}{}{0}}}
\@writefile{nav}{\headcommand {\beamer@framepages {64}{64}}}
\pgfsyspdfmark {pgfid71}{1864679}{15690014}
\@writefile{nav}{\headcommand {\slideentry {0}{0}{22}{65/65}{}{0}}}
\@writefile{nav}{\headcommand {\beamer@framepages {65}{65}}}
\pgfsyspdfmark {pgfid72}{1864679}{15690014}
\@writefile{nav}{\headcommand {\slideentry {0}{0}{23}{66/66}{}{0}}}
\@writefile{nav}{\headcommand {\beamer@framepages {66}{66}}}
\pgfsyspdfmark {pgfid73}{1864679}{15690014}
\@writefile{nav}{\headcommand {\slideentry {0}{0}{24}{67/67}{}{0}}}
\@writefile{nav}{\headcommand {\beamer@framepages {67}{67}}}
\pgfsyspdfmark {pgfid74}{1864679}{15690014}
\pgfsyspdfmark {pgfid75}{1864679}{15690014}
\@writefile{nav}{\headcommand {\slideentry {0}{0}{25}{68/69}{}{0}}}
\@writefile{nav}{\headcommand {\beamer@framepages {68}{69}}}
\pgfsyspdfmark {pgfid76}{1864679}{15690014}
\@writefile{nav}{\headcommand {\slideentry {0}{0}{26}{70/70}{}{0}}}
\@writefile{nav}{\headcommand {\beamer@framepages {70}{70}}}
\pgfsyspdfmark {pgfid77}{1864679}{15690014}
\pgfsyspdfmark {pgfid78}{1864679}{15690014}
\pgfsyspdfmark {pgfid79}{1864679}{15690014}
\@writefile{nav}{\headcommand {\slideentry {0}{0}{27}{71/73}{}{0}}}
\@writefile{nav}{\headcommand {\beamer@framepages {71}{73}}}
\pgfsyspdfmark {pgfid80}{1864679}{15690014}
\pgfsyspdfmark {pgfid81}{1864679}{15690014}
\@writefile{nav}{\headcommand {\slideentry {0}{0}{28}{74/75}{}{0}}}
\@writefile{nav}{\headcommand {\beamer@framepages {74}{75}}}
\pgfsyspdfmark {pgfid82}{1864679}{15690014}
\pgfsyspdfmark {pgfid83}{1864679}{15690014}
\pgfsyspdfmark {pgfid84}{1864679}{15690014}
\@writefile{nav}{\headcommand {\slideentry {0}{0}{29}{76/78}{}{0}}}
\@writefile{nav}{\headcommand {\beamer@framepages {76}{78}}}
\pgfsyspdfmark {pgfid85}{1864679}{15690014}
\pgfsyspdfmark {pgfid86}{1864679}{15690014}
\pgfsyspdfmark {pgfid87}{1864679}{15690014}
\@writefile{nav}{\headcommand {\slideentry {0}{0}{30}{79/81}{}{0}}}
\@writefile{nav}{\headcommand {\beamer@framepages {79}{81}}}
\pgfsyspdfmark {pgfid88}{1864679}{15690014}
\@writefile{nav}{\headcommand {\slideentry {0}{0}{31}{82/82}{}{0}}}
\@writefile{nav}{\headcommand {\beamer@framepages {82}{82}}}
\pgfsyspdfmark {pgfid89}{1864679}{15690014}
\@writefile{nav}{\headcommand {\slideentry {0}{0}{32}{83/83}{}{0}}}
\@writefile{nav}{\headcommand {\beamer@framepages {83}{83}}}
\pgfsyspdfmark {pgfid90}{1864679}{15690014}
\@writefile{nav}{\headcommand {\slideentry {0}{0}{33}{84/84}{}{0}}}
\@writefile{nav}{\headcommand {\beamer@framepages {84}{84}}}
\pgfsyspdfmark {pgfid91}{1864679}{15690014}
\@writefile{nav}{\headcommand {\slideentry {0}{0}{34}{85/85}{}{0}}}
\@writefile{nav}{\headcommand {\beamer@framepages {85}{85}}}
\pgfsyspdfmark {pgfid92}{1864679}{15690014}
\@writefile{nav}{\headcommand {\slideentry {0}{0}{35}{86/86}{}{0}}}
\@writefile{nav}{\headcommand {\beamer@framepages {86}{86}}}
\pgfsyspdfmark {pgfid93}{1864679}{15690014}
\@writefile{nav}{\headcommand {\slideentry {0}{0}{36}{87/87}{}{0}}}
\@writefile{nav}{\headcommand {\beamer@framepages {87}{87}}}
\pgfsyspdfmark {pgfid94}{1864679}{15690014}
\@writefile{nav}{\headcommand {\slideentry {0}{0}{37}{88/88}{}{0}}}
\@writefile{nav}{\headcommand {\beamer@framepages {88}{88}}}
\pgfsyspdfmark {pgfid95}{1864679}{15690014}
\@writefile{nav}{\headcommand {\slideentry {0}{0}{38}{89/89}{}{0}}}
\@writefile{nav}{\headcommand {\beamer@framepages {89}{89}}}
\@writefile{nav}{\headcommand {\beamer@partpages {1}{89}}}
\@writefile{nav}{\headcommand {\beamer@subsectionpages {1}{89}}}
\@writefile{nav}{\headcommand {\beamer@sectionpages {1}{89}}}
\@writefile{nav}{\headcommand {\beamer@documentpages {89}}}
\@writefile{nav}{\headcommand {\def \inserttotalframenumber {38}}}
