\headcommand {\slideentry {0}{0}{1}{1/1}{}{0}}
\headcommand {\beamer@framepages {1}{1}}
\headcommand {\slideentry {0}{0}{2}{2/7}{}{0}}
\headcommand {\beamer@framepages {2}{7}}
\headcommand {\slideentry {0}{0}{3}{8/11}{}{0}}
\headcommand {\beamer@framepages {8}{11}}
\headcommand {\slideentry {0}{0}{4}{12/15}{}{0}}
\headcommand {\beamer@framepages {12}{15}}
\headcommand {\slideentry {0}{0}{5}{16/18}{}{0}}
\headcommand {\beamer@framepages {16}{18}}
\headcommand {\slideentry {0}{0}{6}{19/22}{}{0}}
\headcommand {\beamer@framepages {19}{22}}
\headcommand {\slideentry {0}{0}{7}{23/25}{}{0}}
\headcommand {\beamer@framepages {23}{25}}
\headcommand {\slideentry {0}{0}{8}{26/29}{}{0}}
\headcommand {\beamer@framepages {26}{29}}
\headcommand {\slideentry {0}{0}{9}{30/31}{}{0}}
\headcommand {\beamer@framepages {30}{31}}
\headcommand {\slideentry {0}{0}{10}{32/35}{}{0}}
\headcommand {\beamer@framepages {32}{35}}
\headcommand {\slideentry {0}{0}{11}{36/37}{}{0}}
\headcommand {\beamer@framepages {36}{37}}
\headcommand {\slideentry {0}{0}{12}{38/38}{}{0}}
\headcommand {\beamer@framepages {38}{38}}
\headcommand {\slideentry {0}{0}{13}{39/41}{}{0}}
\headcommand {\beamer@framepages {39}{41}}
\headcommand {\slideentry {0}{0}{14}{42/43}{}{0}}
\headcommand {\beamer@framepages {42}{43}}
\headcommand {\slideentry {0}{0}{15}{44/50}{}{0}}
\headcommand {\beamer@framepages {44}{50}}
\headcommand {\slideentry {0}{0}{16}{51/53}{}{0}}
\headcommand {\beamer@framepages {51}{53}}
\headcommand {\slideentry {0}{0}{17}{54/56}{}{0}}
\headcommand {\beamer@framepages {54}{56}}
\headcommand {\slideentry {0}{0}{18}{57/58}{}{0}}
\headcommand {\beamer@framepages {57}{58}}
\headcommand {\slideentry {0}{0}{19}{59/60}{}{0}}
\headcommand {\beamer@framepages {59}{60}}
\headcommand {\slideentry {0}{0}{20}{61/63}{}{0}}
\headcommand {\beamer@framepages {61}{63}}
\headcommand {\slideentry {0}{0}{21}{64/64}{}{0}}
\headcommand {\beamer@framepages {64}{64}}
\headcommand {\slideentry {0}{0}{22}{65/65}{}{0}}
\headcommand {\beamer@framepages {65}{65}}
\headcommand {\slideentry {0}{0}{23}{66/66}{}{0}}
\headcommand {\beamer@framepages {66}{66}}
\headcommand {\slideentry {0}{0}{24}{67/67}{}{0}}
\headcommand {\beamer@framepages {67}{67}}
\headcommand {\slideentry {0}{0}{25}{68/69}{}{0}}
\headcommand {\beamer@framepages {68}{69}}
\headcommand {\slideentry {0}{0}{26}{70/70}{}{0}}
\headcommand {\beamer@framepages {70}{70}}
\headcommand {\slideentry {0}{0}{27}{71/73}{}{0}}
\headcommand {\beamer@framepages {71}{73}}
\headcommand {\slideentry {0}{0}{28}{74/75}{}{0}}
\headcommand {\beamer@framepages {74}{75}}
\headcommand {\slideentry {0}{0}{29}{76/78}{}{0}}
\headcommand {\beamer@framepages {76}{78}}
\headcommand {\slideentry {0}{0}{30}{79/81}{}{0}}
\headcommand {\beamer@framepages {79}{81}}
\headcommand {\slideentry {0}{0}{31}{82/82}{}{0}}
\headcommand {\beamer@framepages {82}{82}}
\headcommand {\slideentry {0}{0}{32}{83/83}{}{0}}
\headcommand {\beamer@framepages {83}{83}}
\headcommand {\slideentry {0}{0}{33}{84/84}{}{0}}
\headcommand {\beamer@framepages {84}{84}}
\headcommand {\slideentry {0}{0}{34}{85/85}{}{0}}
\headcommand {\beamer@framepages {85}{85}}
\headcommand {\slideentry {0}{0}{35}{86/86}{}{0}}
\headcommand {\beamer@framepages {86}{86}}
\headcommand {\slideentry {0}{0}{36}{87/87}{}{0}}
\headcommand {\beamer@framepages {87}{87}}
\headcommand {\slideentry {0}{0}{37}{88/88}{}{0}}
\headcommand {\beamer@framepages {88}{88}}
\headcommand {\slideentry {0}{0}{38}{89/89}{}{0}}
\headcommand {\beamer@framepages {89}{89}}
\headcommand {\beamer@partpages {1}{89}}
\headcommand {\beamer@subsectionpages {1}{89}}
\headcommand {\beamer@sectionpages {1}{89}}
\headcommand {\beamer@documentpages {89}}
\headcommand {\def \inserttotalframenumber {38}}
