\relax 
\providecommand\hyper@newdestlabel[2]{}
\providecommand\HyperFirstAtBeginDocument{\AtBeginDocument}
\HyperFirstAtBeginDocument{\ifx\hyper@anchor\@undefined
\global\let\oldcontentsline\contentsline
\gdef\contentsline#1#2#3#4{\oldcontentsline{#1}{#2}{#3}}
\global\let\oldnewlabel\newlabel
\gdef\newlabel#1#2{\newlabelxx{#1}#2}
\gdef\newlabelxx#1#2#3#4#5#6{\oldnewlabel{#1}{{#2}{#3}}}
\AtEndDocument{\ifx\hyper@anchor\@undefined
\let\contentsline\oldcontentsline
\let\newlabel\oldnewlabel
\fi}
\fi}
\global\let\hyper@last\relax 
\gdef\HyperFirstAtBeginDocument#1{#1}
\providecommand\HyField@AuxAddToFields[1]{}
\providecommand\HyField@AuxAddToCoFields[2]{}
\bbl@beforestart
\catcode `"\active 
\babel@aux{ngerman}{}
\@writefile{nav}{\headcommand {\slideentry {0}{0}{1}{1/1}{}{0}}}
\@writefile{nav}{\headcommand {\beamer@framepages {1}{1}}}
\pgfsyspdfmark {pgfid1}{1864679}{15690014}
\pgfsyspdfmark {pgfid2}{1864679}{15690014}
\pgfsyspdfmark {pgfid3}{1864679}{15690014}
\pgfsyspdfmark {pgfid4}{1864679}{15690014}
\pgfsyspdfmark {pgfid5}{1864679}{15690014}
\@writefile{nav}{\headcommand {\slideentry {0}{0}{2}{2/6}{}{0}}}
\@writefile{nav}{\headcommand {\beamer@framepages {2}{6}}}
\pgfsyspdfmark {pgfid6}{1864679}{15690014}
\@writefile{nav}{\headcommand {\slideentry {0}{0}{3}{7/7}{}{0}}}
\@writefile{nav}{\headcommand {\beamer@framepages {7}{7}}}
\pgfsyspdfmark {pgfid7}{1864679}{15690014}
\pgfsyspdfmark {pgfid8}{1864679}{15690014}
\pgfsyspdfmark {pgfid9}{1864679}{15690014}
\pgfsyspdfmark {pgfid10}{1864679}{15690014}
\pgfsyspdfmark {pgfid11}{1864679}{15690014}
\@writefile{nav}{\headcommand {\slideentry {0}{0}{4}{8/12}{}{0}}}
\@writefile{nav}{\headcommand {\beamer@framepages {8}{12}}}
\pgfsyspdfmark {pgfid12}{1864679}{15690014}
\pgfsyspdfmark {pgfid13}{1864679}{15690014}
\pgfsyspdfmark {pgfid14}{1864679}{15690014}
\pgfsyspdfmark {pgfid15}{1864679}{15690014}
\pgfsyspdfmark {pgfid16}{1864679}{15690014}
\@writefile{nav}{\headcommand {\slideentry {0}{0}{5}{13/17}{}{0}}}
\@writefile{nav}{\headcommand {\beamer@framepages {13}{17}}}
\pgfsyspdfmark {pgfid17}{1864679}{15690014}
\@writefile{nav}{\headcommand {\slideentry {0}{0}{6}{18/18}{}{0}}}
\@writefile{nav}{\headcommand {\beamer@framepages {18}{18}}}
\pgfsyspdfmark {pgfid18}{1864679}{15690014}
\pgfsyspdfmark {pgfid19}{1864679}{15690014}
\@writefile{nav}{\headcommand {\slideentry {0}{0}{7}{19/20}{}{0}}}
\@writefile{nav}{\headcommand {\beamer@framepages {19}{20}}}
\pgfsyspdfmark {pgfid20}{1864679}{15690014}
\@writefile{nav}{\headcommand {\slideentry {0}{0}{8}{21/21}{}{0}}}
\@writefile{nav}{\headcommand {\beamer@framepages {21}{21}}}
\pgfsyspdfmark {pgfid21}{1864679}{15690014}
\pgfsyspdfmark {pgfid22}{1864679}{15690014}
\pgfsyspdfmark {pgfid23}{1864679}{15690014}
\pgfsyspdfmark {pgfid24}{1864679}{15690014}
\pgfsyspdfmark {pgfid25}{1864679}{15690014}
\@writefile{nav}{\headcommand {\slideentry {0}{0}{9}{22/26}{}{0}}}
\@writefile{nav}{\headcommand {\beamer@framepages {22}{26}}}
\pgfsyspdfmark {pgfid26}{1864679}{15690014}
\pgfsyspdfmark {pgfid27}{1864679}{15690014}
\@writefile{nav}{\headcommand {\slideentry {0}{0}{10}{27/28}{}{0}}}
\@writefile{nav}{\headcommand {\beamer@framepages {27}{28}}}
\pgfsyspdfmark {pgfid28}{1864679}{15690014}
\pgfsyspdfmark {pgfid29}{1864679}{15690014}
\pgfsyspdfmark {pgfid30}{1864679}{15690014}
\pgfsyspdfmark {pgfid31}{1864679}{15690014}
\pgfsyspdfmark {pgfid32}{1864679}{15690014}
\pgfsyspdfmark {pgfid33}{1864679}{15690014}
\@writefile{nav}{\headcommand {\slideentry {0}{0}{11}{29/34}{}{0}}}
\@writefile{nav}{\headcommand {\beamer@framepages {29}{34}}}
\pgfsyspdfmark {pgfid34}{1864679}{15690014}
\pgfsyspdfmark {pgfid35}{1864679}{15690014}
\pgfsyspdfmark {pgfid36}{1864679}{15690014}
\pgfsyspdfmark {pgfid37}{1864679}{15690014}
\@writefile{nav}{\headcommand {\slideentry {0}{0}{12}{35/38}{}{0}}}
\@writefile{nav}{\headcommand {\beamer@framepages {35}{38}}}
\pgfsyspdfmark {pgfid38}{1864679}{15690014}
\pgfsyspdfmark {pgfid39}{1864679}{15690014}
\pgfsyspdfmark {pgfid40}{1864679}{15690014}
\pgfsyspdfmark {pgfid41}{1864679}{15690014}
\@writefile{nav}{\headcommand {\slideentry {0}{0}{13}{39/42}{}{0}}}
\@writefile{nav}{\headcommand {\beamer@framepages {39}{42}}}
\pgfsyspdfmark {pgfid42}{1864679}{15690014}
\pgfsyspdfmark {pgfid43}{1864679}{15690014}
\pgfsyspdfmark {pgfid44}{1864679}{15690014}
\pgfsyspdfmark {pgfid45}{1864679}{15690014}
\@writefile{nav}{\headcommand {\slideentry {0}{0}{14}{43/46}{}{0}}}
\@writefile{nav}{\headcommand {\beamer@framepages {43}{46}}}
\pgfsyspdfmark {pgfid46}{1864679}{15690014}
\@writefile{nav}{\headcommand {\slideentry {0}{0}{15}{47/47}{}{0}}}
\@writefile{nav}{\headcommand {\beamer@framepages {47}{47}}}
\pgfsyspdfmark {pgfid47}{1864679}{15690014}
\pgfsyspdfmark {pgfid48}{1864679}{15690014}
\pgfsyspdfmark {pgfid49}{1864679}{15690014}
\pgfsyspdfmark {pgfid50}{1864679}{15690014}
\@writefile{nav}{\headcommand {\slideentry {0}{0}{16}{48/51}{}{0}}}
\@writefile{nav}{\headcommand {\beamer@framepages {48}{51}}}
\pgfsyspdfmark {pgfid51}{1864679}{15690014}
\pgfsyspdfmark {pgfid52}{1864679}{15690014}
\pgfsyspdfmark {pgfid53}{1864679}{15690014}
\pgfsyspdfmark {pgfid54}{1864679}{15690014}
\@writefile{nav}{\headcommand {\slideentry {0}{0}{17}{52/55}{}{0}}}
\@writefile{nav}{\headcommand {\beamer@framepages {52}{55}}}
\pgfsyspdfmark {pgfid55}{1864679}{15690014}
\@writefile{nav}{\headcommand {\slideentry {0}{0}{18}{56/56}{}{0}}}
\@writefile{nav}{\headcommand {\beamer@framepages {56}{56}}}
\pgfsyspdfmark {pgfid56}{1864679}{15690014}
\pgfsyspdfmark {pgfid57}{1864679}{15690014}
\pgfsyspdfmark {pgfid58}{1864679}{15690014}
\@writefile{nav}{\headcommand {\slideentry {0}{0}{19}{57/59}{}{0}}}
\@writefile{nav}{\headcommand {\beamer@framepages {57}{59}}}
\pgfsyspdfmark {pgfid59}{1864679}{15690014}
\pgfsyspdfmark {pgfid60}{1864679}{15690014}
\pgfsyspdfmark {pgfid61}{1864679}{15690014}
\pgfsyspdfmark {pgfid62}{1864679}{15690014}
\@writefile{nav}{\headcommand {\slideentry {0}{0}{20}{60/63}{}{0}}}
\@writefile{nav}{\headcommand {\beamer@framepages {60}{63}}}
\pgfsyspdfmark {pgfid63}{1864679}{15690014}
\pgfsyspdfmark {pgfid64}{1864679}{15690014}
\pgfsyspdfmark {pgfid65}{1864679}{15690014}
\pgfsyspdfmark {pgfid66}{1864679}{15690014}
\pgfsyspdfmark {pgfid67}{1864679}{15690014}
\pgfsyspdfmark {pgfid68}{1864679}{15690014}
\@writefile{nav}{\headcommand {\slideentry {0}{0}{21}{64/69}{}{0}}}
\@writefile{nav}{\headcommand {\beamer@framepages {64}{69}}}
\pgfsyspdfmark {pgfid69}{1864679}{15690014}
\pgfsyspdfmark {pgfid70}{1864679}{15690014}
\pgfsyspdfmark {pgfid71}{1864679}{15690014}
\@writefile{nav}{\headcommand {\slideentry {0}{0}{22}{70/72}{}{0}}}
\@writefile{nav}{\headcommand {\beamer@framepages {70}{72}}}
\pgfsyspdfmark {pgfid72}{1864679}{15690014}
\pgfsyspdfmark {pgfid73}{1864679}{15690014}
\pgfsyspdfmark {pgfid74}{1864679}{15690014}
\pgfsyspdfmark {pgfid75}{1864679}{15690014}
\pgfsyspdfmark {pgfid76}{1864679}{15690014}
\pgfsyspdfmark {pgfid77}{1864679}{15690014}
\pgfsyspdfmark {pgfid78}{1864679}{15690014}
\@writefile{nav}{\headcommand {\slideentry {0}{0}{23}{73/79}{}{0}}}
\@writefile{nav}{\headcommand {\beamer@framepages {73}{79}}}
\pgfsyspdfmark {pgfid79}{1864679}{15690014}
\@writefile{nav}{\headcommand {\slideentry {0}{0}{24}{80/80}{}{0}}}
\@writefile{nav}{\headcommand {\beamer@framepages {80}{80}}}
\pgfsyspdfmark {pgfid80}{1864679}{15690014}
\pgfsyspdfmark {pgfid81}{1864679}{15690014}
\pgfsyspdfmark {pgfid82}{1864679}{15690014}
\pgfsyspdfmark {pgfid83}{1864679}{15690014}
\pgfsyspdfmark {pgfid84}{1864679}{15690014}
\@writefile{nav}{\headcommand {\slideentry {0}{0}{25}{81/85}{}{0}}}
\@writefile{nav}{\headcommand {\beamer@framepages {81}{85}}}
\pgfsyspdfmark {pgfid85}{1864679}{15690014}
\pgfsyspdfmark {pgfid86}{1864679}{15690014}
\pgfsyspdfmark {pgfid87}{1864679}{15690014}
\pgfsyspdfmark {pgfid88}{1864679}{15690014}
\@writefile{nav}{\headcommand {\slideentry {0}{0}{26}{86/89}{}{0}}}
\@writefile{nav}{\headcommand {\beamer@framepages {86}{89}}}
\@writefile{nav}{\headcommand {\beamer@partpages {1}{89}}}
\@writefile{nav}{\headcommand {\beamer@subsectionpages {1}{89}}}
\@writefile{nav}{\headcommand {\beamer@sectionpages {1}{89}}}
\@writefile{nav}{\headcommand {\beamer@documentpages {89}}}
\@writefile{nav}{\headcommand {\gdef \inserttotalframenumber {26}}}
