\relax 
\providecommand\hyper@newdestlabel[2]{}
\providecommand\zref@newlabel[2]{}
\providecommand\HyperFirstAtBeginDocument{\AtBeginDocument}
\HyperFirstAtBeginDocument{\ifx\hyper@anchor\@undefined
\global\let\oldcontentsline\contentsline
\gdef\contentsline#1#2#3#4{\oldcontentsline{#1}{#2}{#3}}
\global\let\oldnewlabel\newlabel
\gdef\newlabel#1#2{\newlabelxx{#1}#2}
\gdef\newlabelxx#1#2#3#4#5#6{\oldnewlabel{#1}{{#2}{#3}}}
\AtEndDocument{\ifx\hyper@anchor\@undefined
\let\contentsline\oldcontentsline
\let\newlabel\oldnewlabel
\fi}
\fi}
\global\let\hyper@last\relax 
\gdef\HyperFirstAtBeginDocument#1{#1}
\providecommand\HyField@AuxAddToFields[1]{}
\providecommand\HyField@AuxAddToCoFields[2]{}
\providecommand\pbs@newkey[2]{}
\providecommand\pbs@seq@push@cx[2]{}
\providecommand\pbs@at@end@dvi@check{}
\pbs@at@end@dvi@check
\providecommand\@anim@newkey[2]{}
\bbl@beforestart
\catcode `"\active 
\pbs@newkey{pbs@last@page}{1}
\babel@aux{ngerman}{}
\@writefile{nav}{\headcommand {\slideentry {0}{0}{1}{1/1}{}{0}}}
\@writefile{nav}{\headcommand {\beamer@framepages {1}{1}}}
\pbs@newkey{pbs@last@page}{2}
\pgfsyspdfmark {pgfid1}{1864679}{15690014}
\pbs@newkey{pbs@last@page}{3}
\pgfsyspdfmark {pgfid2}{1864679}{15690014}
\pbs@newkey{pbs@last@page}{4}
\pgfsyspdfmark {pgfid3}{1864679}{15690014}
\pbs@newkey{pbs@last@page}{5}
\pgfsyspdfmark {pgfid4}{1864679}{15690014}
\pbs@newkey{pbs@last@page}{6}
\pgfsyspdfmark {pgfid5}{1864679}{15690014}
\pbs@newkey{pbs@last@page}{7}
\pgfsyspdfmark {pgfid6}{1864679}{15690014}
\@writefile{nav}{\headcommand {\slideentry {0}{0}{2}{2/7}{}{0}}}
\@writefile{nav}{\headcommand {\beamer@framepages {2}{7}}}
\pbs@newkey{pbs@last@page}{8}
\pgfsyspdfmark {pgfid7}{1864679}{15690014}
\@writefile{nav}{\headcommand {\slideentry {0}{0}{3}{8/8}{}{0}}}
\@writefile{nav}{\headcommand {\beamer@framepages {8}{8}}}
\pbs@newkey{pbs@last@page}{9}
\pgfsyspdfmark {pgfid8}{1864679}{15690014}
\pbs@newkey{pbs@last@page}{10}
\pgfsyspdfmark {pgfid9}{1864679}{15690014}
\pbs@newkey{pbs@last@page}{11}
\pgfsyspdfmark {pgfid10}{1864679}{15690014}
\pbs@newkey{pbs@last@page}{12}
\pgfsyspdfmark {pgfid11}{1864679}{15690014}
\pbs@newkey{pbs@last@page}{13}
\pgfsyspdfmark {pgfid12}{1864679}{15690014}
\@writefile{nav}{\headcommand {\slideentry {0}{0}{4}{9/13}{}{0}}}
\@writefile{nav}{\headcommand {\beamer@framepages {9}{13}}}
\pbs@newkey{pbs@last@page}{14}
\pgfsyspdfmark {pgfid13}{1864679}{15690014}
\@writefile{nav}{\headcommand {\slideentry {0}{0}{5}{14/14}{}{0}}}
\@writefile{nav}{\headcommand {\beamer@framepages {14}{14}}}
\pbs@newkey{pbs@last@page}{15}
\pgfsyspdfmark {pgfid14}{1864679}{15690014}
\pbs@newkey{pbs@last@page}{16}
\pgfsyspdfmark {pgfid15}{1864679}{15690014}
\pbs@newkey{pbs@last@page}{17}
\pgfsyspdfmark {pgfid16}{1864679}{15690014}
\pbs@newkey{pbs@last@page}{18}
\pgfsyspdfmark {pgfid17}{1864679}{15690014}
\pbs@newkey{pbs@last@page}{19}
\pgfsyspdfmark {pgfid18}{1864679}{15690014}
\pbs@newkey{pbs@last@page}{20}
\pgfsyspdfmark {pgfid19}{1864679}{15690014}
\pbs@newkey{pbs@last@page}{21}
\pgfsyspdfmark {pgfid20}{1864679}{15690014}
\@writefile{nav}{\headcommand {\slideentry {0}{0}{6}{15/21}{}{0}}}
\@writefile{nav}{\headcommand {\beamer@framepages {15}{21}}}
\pbs@newkey{pbs@last@page}{22}
\pgfsyspdfmark {pgfid21}{1864679}{15690014}
\pbs@newkey{pbs@last@page}{23}
\pgfsyspdfmark {pgfid22}{1864679}{15690014}
\pbs@newkey{pbs@last@page}{24}
\pgfsyspdfmark {pgfid23}{1864679}{15690014}
\@writefile{nav}{\headcommand {\slideentry {0}{0}{7}{22/24}{}{0}}}
\@writefile{nav}{\headcommand {\beamer@framepages {22}{24}}}
\pbs@newkey{pbs@last@page}{25}
\pgfsyspdfmark {pgfid24}{1864679}{15690014}
\pbs@newkey{pbs@last@page}{26}
\pgfsyspdfmark {pgfid25}{1864679}{15690014}
\pbs@newkey{pbs@last@page}{27}
\pgfsyspdfmark {pgfid26}{1864679}{15690014}
\pbs@newkey{pbs@last@page}{28}
\pgfsyspdfmark {pgfid27}{1864679}{15690014}
\@writefile{nav}{\headcommand {\slideentry {0}{0}{8}{25/28}{}{0}}}
\@writefile{nav}{\headcommand {\beamer@framepages {25}{28}}}
\pbs@newkey{pbs@last@page}{29}
\pgfsyspdfmark {pgfid28}{1864679}{15690014}
\@writefile{nav}{\headcommand {\slideentry {0}{0}{9}{29/29}{}{0}}}
\@writefile{nav}{\headcommand {\beamer@framepages {29}{29}}}
\pbs@newkey{pbs@last@page}{30}
\pgfsyspdfmark {pgfid29}{1864679}{15690014}
\pbs@newkey{pbs@last@page}{31}
\pgfsyspdfmark {pgfid30}{1864679}{15690014}
\pbs@newkey{pbs@last@page}{32}
\pgfsyspdfmark {pgfid31}{1864679}{15690014}
\pbs@newkey{pbs@last@page}{33}
\pgfsyspdfmark {pgfid32}{1864679}{15690014}
\pbs@newkey{pbs@last@page}{34}
\pgfsyspdfmark {pgfid33}{1864679}{15690014}
\pbs@newkey{pbs@last@page}{35}
\pgfsyspdfmark {pgfid34}{1864679}{15690014}
\pbs@newkey{pbs@last@page}{36}
\pgfsyspdfmark {pgfid35}{1864679}{15690014}
\pbs@newkey{pbs@last@page}{37}
\pgfsyspdfmark {pgfid36}{1864679}{15690014}
\@writefile{nav}{\headcommand {\slideentry {0}{0}{10}{30/37}{}{0}}}
\@writefile{nav}{\headcommand {\beamer@framepages {30}{37}}}
\pbs@newkey{pbs@last@page}{38}
\pgfsyspdfmark {pgfid37}{1864679}{15690014}
\pbs@newkey{pbs@last@page}{39}
\pgfsyspdfmark {pgfid38}{1864679}{15690014}
\pbs@newkey{pbs@last@page}{40}
\pgfsyspdfmark {pgfid39}{1864679}{15690014}
\pbs@newkey{pbs@last@page}{41}
\pgfsyspdfmark {pgfid40}{1864679}{15690014}
\@writefile{nav}{\headcommand {\slideentry {0}{0}{11}{38/41}{}{0}}}
\@writefile{nav}{\headcommand {\beamer@framepages {38}{41}}}
\pbs@newkey{pbs@last@page}{42}
\pgfsyspdfmark {pgfid41}{1864679}{15690014}
\pbs@newkey{pbs@last@page}{43}
\pgfsyspdfmark {pgfid42}{1864679}{15690014}
\pbs@newkey{pbs@last@page}{44}
\pgfsyspdfmark {pgfid43}{1864679}{15690014}
\pbs@newkey{pbs@last@page}{45}
\pgfsyspdfmark {pgfid44}{1864679}{15690014}
\pbs@newkey{pbs@last@page}{46}
\pgfsyspdfmark {pgfid45}{1864679}{15690014}
\pbs@newkey{pbs@last@page}{47}
\pgfsyspdfmark {pgfid46}{1864679}{15690014}
\pbs@newkey{pbs@last@page}{48}
\pgfsyspdfmark {pgfid47}{1864679}{15690014}
\pbs@newkey{pbs@last@page}{49}
\pgfsyspdfmark {pgfid48}{1864679}{15690014}
\pbs@newkey{pbs@last@page}{50}
\pgfsyspdfmark {pgfid49}{1864679}{15690014}
\zref@newlabel{anim@abspage0}{\abspage{50}}
\@writefile{nav}{\headcommand {\slideentry {0}{0}{12}{42/50}{}{0}}}
\@writefile{nav}{\headcommand {\beamer@framepages {42}{50}}}
\pbs@newkey{pbs@last@page}{51}
\pgfsyspdfmark {pgfid50}{1864679}{15690014}
\pbs@newkey{pbs@last@page}{52}
\pgfsyspdfmark {pgfid51}{1864679}{15690014}
\zref@newlabel{anim@abspage1}{\abspage{52}}
\pbs@newkey{pbs@last@page}{53}
\pgfsyspdfmark {pgfid52}{1864679}{15690014}
\zref@newlabel{anim@abspage2}{\abspage{53}}
\pbs@newkey{pbs@last@page}{54}
\pgfsyspdfmark {pgfid53}{1864679}{15690014}
\zref@newlabel{anim@abspage3}{\abspage{54}}
\pbs@newkey{pbs@last@page}{55}
\pgfsyspdfmark {pgfid54}{1864679}{15690014}
\zref@newlabel{anim@abspage4}{\abspage{55}}
\@writefile{nav}{\headcommand {\slideentry {0}{0}{13}{51/55}{}{0}}}
\@writefile{nav}{\headcommand {\beamer@framepages {51}{55}}}
\pbs@newkey{pbs@last@page}{56}
\pgfsyspdfmark {pgfid55}{1864679}{15690014}
\@writefile{nav}{\headcommand {\slideentry {0}{0}{14}{56/56}{}{0}}}
\@writefile{nav}{\headcommand {\beamer@framepages {56}{56}}}
\pbs@newkey{pbs@last@page}{57}
\pgfsyspdfmark {pgfid56}{1864679}{15690014}
\pbs@newkey{pbs@last@page}{58}
\pgfsyspdfmark {pgfid57}{1864679}{15690014}
\pbs@newkey{pbs@last@page}{59}
\pgfsyspdfmark {pgfid58}{1864679}{15690014}
\pbs@newkey{pbs@last@page}{60}
\pgfsyspdfmark {pgfid59}{1864679}{15690014}
\pbs@newkey{pbs@last@page}{61}
\pgfsyspdfmark {pgfid60}{1864679}{15690014}
\@writefile{nav}{\headcommand {\slideentry {0}{0}{15}{57/61}{}{0}}}
\@writefile{nav}{\headcommand {\beamer@framepages {57}{61}}}
\pbs@newkey{pbs@last@page}{62}
\pgfsyspdfmark {pgfid61}{1864679}{15690014}
\@writefile{nav}{\headcommand {\slideentry {0}{0}{16}{62/62}{}{0}}}
\@writefile{nav}{\headcommand {\beamer@framepages {62}{62}}}
\pbs@newkey{pbs@last@page}{63}
\pgfsyspdfmark {pgfid62}{1864679}{15690014}
\pbs@newkey{pbs@last@page}{64}
\pgfsyspdfmark {pgfid63}{1864679}{15690014}
\pbs@newkey{pbs@last@page}{65}
\pgfsyspdfmark {pgfid64}{1864679}{15690014}
\pbs@newkey{pbs@last@page}{66}
\pgfsyspdfmark {pgfid65}{1864679}{15690014}
\pbs@newkey{pbs@last@page}{67}
\pgfsyspdfmark {pgfid66}{1864679}{15690014}
\pbs@newkey{pbs@last@page}{68}
\pgfsyspdfmark {pgfid67}{1864679}{15690014}
\pbs@newkey{pbs@last@page}{69}
\pgfsyspdfmark {pgfid68}{1864679}{15690014}
\@writefile{nav}{\headcommand {\slideentry {0}{0}{17}{63/69}{}{0}}}
\@writefile{nav}{\headcommand {\beamer@framepages {63}{69}}}
\pbs@newkey{pbs@last@page}{70}
\pgfsyspdfmark {pgfid69}{1864679}{15690014}
\pbs@newkey{pbs@last@page}{71}
\pgfsyspdfmark {pgfid70}{1864679}{15690014}
\pbs@newkey{pbs@last@page}{72}
\pgfsyspdfmark {pgfid71}{1864679}{15690014}
\pbs@newkey{pbs@last@page}{73}
\pgfsyspdfmark {pgfid72}{1864679}{15690014}
\pbs@newkey{pbs@last@page}{74}
\pgfsyspdfmark {pgfid73}{1864679}{15690014}
\pbs@newkey{pbs@last@page}{75}
\pgfsyspdfmark {pgfid74}{1864679}{15690014}
\@writefile{nav}{\headcommand {\slideentry {0}{0}{18}{70/75}{}{0}}}
\@writefile{nav}{\headcommand {\beamer@framepages {70}{75}}}
\pbs@newkey{pbs@last@page}{76}
\pgfsyspdfmark {pgfid75}{1864679}{15690014}
\@writefile{nav}{\headcommand {\slideentry {0}{0}{19}{76/76}{}{0}}}
\@writefile{nav}{\headcommand {\beamer@framepages {76}{76}}}
\pbs@newkey{pbs@last@page}{77}
\pgfsyspdfmark {pgfid76}{1864679}{15690014}
\pbs@newkey{pbs@last@page}{78}
\pgfsyspdfmark {pgfid77}{1864679}{15690014}
\pbs@newkey{pbs@last@page}{79}
\pgfsyspdfmark {pgfid78}{1864679}{15690014}
\pbs@newkey{pbs@last@page}{80}
\pgfsyspdfmark {pgfid79}{1864679}{15690014}
\pbs@newkey{pbs@last@page}{81}
\pgfsyspdfmark {pgfid80}{1864679}{15690014}
\@writefile{nav}{\headcommand {\slideentry {0}{0}{20}{77/81}{}{0}}}
\@writefile{nav}{\headcommand {\beamer@framepages {77}{81}}}
\pbs@newkey{pbs@last@page}{82}
\pgfsyspdfmark {pgfid81}{1864679}{15690014}
\pbs@newkey{pbs@last@page}{83}
\pgfsyspdfmark {pgfid82}{1864679}{15690014}
\pbs@newkey{pbs@last@page}{84}
\pgfsyspdfmark {pgfid83}{1864679}{15690014}
\pbs@newkey{pbs@last@page}{85}
\pgfsyspdfmark {pgfid84}{1864679}{15690014}
\@writefile{nav}{\headcommand {\slideentry {0}{0}{21}{82/85}{}{0}}}
\@writefile{nav}{\headcommand {\beamer@framepages {82}{85}}}
\@writefile{nav}{\headcommand {\beamer@partpages {1}{85}}}
\@writefile{nav}{\headcommand {\beamer@subsectionpages {1}{85}}}
\@writefile{nav}{\headcommand {\beamer@sectionpages {1}{85}}}
\@writefile{nav}{\headcommand {\beamer@documentpages {85}}}
\@writefile{nav}{\headcommand {\gdef \inserttotalframenumber {21}}}
